%YAML 1.1
%TAG !u! tag:unity3d.com,2011:
--- !u!114 &11400000
MonoBehaviour:
  m_ObjectHideFlags: 0
  m_CorrespondingSourceObject: {fileID: 0}
  m_PrefabInstance: {fileID: 0}
  m_PrefabAsset: {fileID: 0}
  m_GameObject: {fileID: 0}
  m_Enabled: 1
  m_EditorHideFlags: 0
  m_Script: {fileID: -1893448595, guid: a040fb66244a7f54289914d98ea4ef7d, type: 3}
  m_Name: GetMinOrMax
  m_EditorClassIdentifier: 
  _data:
    _json: '{"graph":{"variables":{"collection":{"$content":[],"$version":"A"},"$version":"A"},"controlInputDefinitions":[],"controlOutputDefinitions":[],"valueInputDefinitions":[{"hasDefaultValue":true,"defaultValue":{"$content":0.0,"$type":"System.Single"},"_type":"System.Single","key":"input","label":null,"summary":null,"hideLabel":false},{"hasDefaultValue":true,"defaultValue":{"$content":0.0,"$type":"System.Single"},"_type":"System.Single","key":"min","label":null,"summary":null,"hideLabel":false},{"hasDefaultValue":true,"defaultValue":{"$content":0.0,"$type":"System.Single"},"_type":"System.Single","key":"max","label":null,"summary":null,"hideLabel":false}],"valueOutputDefinitions":[{"_type":"System.Single","key":"output","label":null,"summary":null,"hideLabel":false}],"title":null,"summary":null,"pan":{"x":281.5835,"y":-11.94531},"zoom":0.8,"elements":[{"defaultValues":{},"position":{"x":-240.0,"y":-119.0},"guid":"7ee54425-3438-4f90-a980-38f82d74c05b","$version":"A","$type":"Bolt.GraphInput","$id":"13"},{"defaultValues":{},"position":{"x":725.0,"y":-115.0},"guid":"3c7c2a3c-7251-4d58-83a5-8d2288b51412","$version":"A","$type":"Bolt.GraphOutput","$id":"15"},{"numeric":true,"defaultValues":{"b":{"$content":0.0,"$type":"System.Single"}},"position":{"x":244.0,"y":-121.0},"guid":"c66b4f65-ac2e-4a29-b796-ee4fa608e8ad","$version":"A","$type":"Bolt.Greater","$id":"17"},{"defaultValues":{"b":{"$content":1.0,"$type":"System.Single"}},"position":{"x":-100.0,"y":-3.0},"guid":"3e16466b-da12-4a5a-ab96-49083f47943b","$version":"A","$type":"Bolt.ScalarAdd","$id":"19"},{"defaultValues":{"dividend":{"$content":1.0,"$type":"System.Single"},"divisor":{"$content":2.0,"$type":"System.Single"}},"position":{"x":45.0,"y":11.0},"guid":"ef7e0bb0-89dd-4fac-af09-13a514abb39a","$version":"A","$type":"Bolt.ScalarDivide","$id":"21"},{"defaultValues":{},"position":{"x":451.0,"y":-114.0},"guid":"e7c77421-52fc-47a6-b79b-5bcce56079fd","$version":"A","$type":"Bolt.SelectUnit","$id":"23"},{"sourceUnit":{"$ref":"19"},"sourceKey":"sum","destinationUnit":{"$ref":"21"},"destinationKey":"dividend","guid":"eee44138-2c9d-4d09-8283-8b49db114a9f","$type":"Bolt.ValueConnection"},{"sourceUnit":{"$ref":"21"},"sourceKey":"quotient","destinationUnit":{"$ref":"17"},"destinationKey":"b","guid":"9a311561-8d4e-4d62-afd2-aa545e282fdc","$type":"Bolt.ValueConnection"},{"sourceUnit":{"$ref":"17"},"sourceKey":"comparison","destinationUnit":{"$ref":"23"},"destinationKey":"condition","guid":"c268a59e-6f58-4e88-9227-58f82c8b7b43","$type":"Bolt.ValueConnection"},{"sourceUnit":{"$ref":"13"},"sourceKey":"input","destinationUnit":{"$ref":"17"},"destinationKey":"a","guid":"e9052feb-5488-458c-bedb-1d7ba2157eb3","$type":"Bolt.ValueConnection"},{"sourceUnit":{"$ref":"13"},"sourceKey":"min","destinationUnit":{"$ref":"19"},"destinationKey":"a","guid":"dec6fdab-1ffe-4780-a301-220e862dcfb1","$type":"Bolt.ValueConnection"},{"sourceUnit":{"$ref":"13"},"sourceKey":"max","destinationUnit":{"$ref":"19"},"destinationKey":"b","guid":"80768c67-5c42-40a8-9a6d-4083d289aeeb","$type":"Bolt.ValueConnection"},{"sourceUnit":{"$ref":"23"},"sourceKey":"selection","destinationUnit":{"$ref":"15"},"destinationKey":"output","guid":"c58056ef-3b23-4e6c-8d0f-22738b27b543","$type":"Bolt.ValueConnection"},{"sourceUnit":{"$ref":"13"},"sourceKey":"min","destinationUnit":{"$ref":"23"},"destinationKey":"ifTrue","guid":"b7dc30ee-913c-42b5-86cd-363b83548106","$type":"Bolt.ValueConnection"},{"sourceUnit":{"$ref":"13"},"sourceKey":"max","destinationUnit":{"$ref":"23"},"destinationKey":"ifFalse","guid":"7f1ae5a8-b186-489e-8c9f-e28a54e780eb","$type":"Bolt.ValueConnection"}],"$version":"A"}}'
    _objectReferences: []
