%YAML 1.1
%TAG !u! tag:unity3d.com,2011:
--- !u!114 &11400000
MonoBehaviour:
  m_ObjectHideFlags: 0
  m_CorrespondingSourceObject: {fileID: 0}
  m_PrefabInstance: {fileID: 0}
  m_PrefabAsset: {fileID: 0}
  m_GameObject: {fileID: 0}
  m_Enabled: 1
  m_EditorHideFlags: 0
  m_Script: {fileID: -1893448595, guid: a040fb66244a7f54289914d98ea4ef7d, type: 3}
  m_Name: IsSquare
  m_EditorClassIdentifier: 
  _data:
    _json: '{"graph":{"variables":{"collection":{"$content":[],"$version":"A"},"$version":"A"},"controlInputDefinitions":[],"controlOutputDefinitions":[],"valueInputDefinitions":[{"hasDefaultValue":true,"defaultValue":{"$content":0.0,"$type":"System.Single"},"_type":"System.Single","key":"input","label":"Input","summary":null,"hideLabel":true}],"valueOutputDefinitions":[{"_type":"System.Boolean","key":"result","label":null,"summary":null,"hideLabel":true}],"title":"IsQuare","summary":"Check
      if a number is square or not","pan":{"x":88.67792,"y":35.96548},"zoom":0.7499999,"elements":[{"defaultValues":{},"position":{"x":-292.0,"y":-119.0},"guid":"06f8f506-228b-48d4-9c8a-84bf5b6580d7","$version":"A","$type":"Bolt.GraphInput","$id":"11"},{"defaultValues":{},"position":{"x":407.0,"y":-113.0},"guid":"2620b39e-1b5e-4625-97f8-8e8f59f24688","$version":"A","$type":"Bolt.GraphOutput","$id":"13"},{"chainable":false,"member":{"name":"Sqrt","parameterTypes":["System.Single"],"targetType":"UnityEngine.Mathf","targetTypeName":"UnityEngine.Mathf","$version":"A"},"defaultValues":{"%f":{"$content":0.0,"$type":"System.Single"}},"position":{"x":-162.0,"y":-190.0},"guid":"33dc0aba-41c7-4513-9dc3-9f461966b9d1","$version":"A","$type":"Bolt.InvokeMember","$id":"15"},{"defaultValues":{"minuend":{"$content":1.0,"$type":"System.Single"},"subtrahend":{"$content":1.0,"$type":"System.Single"}},"position":{"x":86.0,"y":-170.0},"guid":"7d1d8f43-fcbc-4257-83b1-e06d5377e195","$version":"A","$type":"Bolt.ScalarSubtract","$id":"18"},{"chainable":false,"member":{"name":"Floor","parameterTypes":["System.Single"],"targetType":"UnityEngine.Mathf","targetTypeName":"UnityEngine.Mathf","$version":"A"},"defaultValues":{"%f":{"$content":0.0,"$type":"System.Single"}},"position":{"x":-35.0,"y":-55.0},"guid":"cf81d33d-e684-4492-8ce2-89f062476ae7","$version":"A","$type":"Bolt.InvokeMember","$id":"20"},{"chainable":false,"member":{"name":"Equals","parameterTypes":["System.Single"],"targetType":"System.Single","targetTypeName":"System.Single","$version":"A"},"defaultValues":{"target":{"$content":0.0,"$type":"System.Single"},"%obj":{"$content":0.0,"$type":"System.Single"}},"position":{"x":254.0,"y":-192.0},"guid":"2b0593ae-810f-4579-867a-d6ddc224e46c","$version":"A","$type":"Bolt.InvokeMember","$id":"23"},{"sourceUnit":{"$ref":"11"},"sourceKey":"input","destinationUnit":{"$ref":"15"},"destinationKey":"%f","guid":"e5a5634c-190c-4fc6-9705-c9abe0686abd","$type":"Bolt.ValueConnection"},{"sourceUnit":{"$ref":"15"},"sourceKey":"result","destinationUnit":{"$ref":"18"},"destinationKey":"minuend","guid":"ace995da-33e5-4c83-a82c-3a33d5259185","$type":"Bolt.ValueConnection"},{"sourceUnit":{"$ref":"20"},"sourceKey":"result","destinationUnit":{"$ref":"18"},"destinationKey":"subtrahend","guid":"517f3026-af98-4163-a8ef-2c8a1fd07ea5","$type":"Bolt.ValueConnection"},{"sourceUnit":{"$ref":"15"},"sourceKey":"result","destinationUnit":{"$ref":"20"},"destinationKey":"%f","guid":"aa9c6d03-8d73-4d46-9fa3-2b3c43301885","$type":"Bolt.ValueConnection"},{"sourceUnit":{"$ref":"18"},"sourceKey":"difference","destinationUnit":{"$ref":"23"},"destinationKey":"target","guid":"db6f85a2-a2d2-4c70-964f-d7ff963ac469","$type":"Bolt.ValueConnection"},{"sourceUnit":{"$ref":"23"},"sourceKey":"result","destinationUnit":{"$ref":"13"},"destinationKey":"result","guid":"a4a789a0-2ad6-4a39-9182-d19a9436bb97","$type":"Bolt.ValueConnection"}],"$version":"A"}}'
    _objectReferences: []
