%YAML 1.1
%TAG !u! tag:unity3d.com,2011:
--- !u!1001 &4858914215350071442
PrefabInstance:
  m_ObjectHideFlags: 0
  serializedVersion: 2
  m_Modification:
    m_TransformParent: {fileID: 0}
    m_Modifications:
    - target: {fileID: -8679921383154817045, guid: 5bfce44e3d02ea34e985c838724b5868, type: 3}
      propertyPath: m_RootOrder
      value: 0
      objectReference: {fileID: 0}
    - target: {fileID: -8679921383154817045, guid: 5bfce44e3d02ea34e985c838724b5868, type: 3}
      propertyPath: m_LocalPosition.x
      value: -0.10069423
      objectReference: {fileID: 0}
    - target: {fileID: -8679921383154817045, guid: 5bfce44e3d02ea34e985c838724b5868, type: 3}
      propertyPath: m_LocalPosition.y
      value: 0.6581061
      objectReference: {fileID: 0}
    - target: {fileID: -8679921383154817045, guid: 5bfce44e3d02ea34e985c838724b5868, type: 3}
      propertyPath: m_LocalPosition.z
      value: -39.162807
      objectReference: {fileID: 0}
    - target: {fileID: -8679921383154817045, guid: 5bfce44e3d02ea34e985c838724b5868, type: 3}
      propertyPath: m_LocalRotation.w
      value: 0.0005052733
      objectReference: {fileID: 0}
    - target: {fileID: -8679921383154817045, guid: 5bfce44e3d02ea34e985c838724b5868, type: 3}
      propertyPath: m_LocalRotation.x
      value: 0.64375204
      objectReference: {fileID: 0}
    - target: {fileID: -8679921383154817045, guid: 5bfce44e3d02ea34e985c838724b5868, type: 3}
      propertyPath: m_LocalRotation.y
      value: 0.5953186
      objectReference: {fileID: 0}
    - target: {fileID: -8679921383154817045, guid: 5bfce44e3d02ea34e985c838724b5868, type: 3}
      propertyPath: m_LocalRotation.z
      value: 0.4808107
      objectReference: {fileID: 0}
    - target: {fileID: -8679921383154817045, guid: 5bfce44e3d02ea34e985c838724b5868, type: 3}
      propertyPath: m_LocalEulerAnglesHint.x
      value: 0
      objectReference: {fileID: 0}
    - target: {fileID: -8679921383154817045, guid: 5bfce44e3d02ea34e985c838724b5868, type: 3}
      propertyPath: m_LocalEulerAnglesHint.y
      value: 0
      objectReference: {fileID: 0}
    - target: {fileID: -8679921383154817045, guid: 5bfce44e3d02ea34e985c838724b5868, type: 3}
      propertyPath: m_LocalEulerAnglesHint.z
      value: 0
      objectReference: {fileID: 0}
    - target: {fileID: 919132149155446097, guid: 5bfce44e3d02ea34e985c838724b5868, type: 3}
      propertyPath: m_Name
      value: Crystals
      objectReference: {fileID: 0}
    m_RemovedComponents: []
  m_SourcePrefab: {fileID: 100100000, guid: 5bfce44e3d02ea34e985c838724b5868, type: 3}
--- !u!1 &5741875591972670915 stripped
GameObject:
  m_CorrespondingSourceObject: {fileID: 919132149155446097, guid: 5bfce44e3d02ea34e985c838724b5868, type: 3}
  m_PrefabInstance: {fileID: 4858914215350071442}
  m_PrefabAsset: {fileID: 0}
--- !u!65 &3176863970307809309
BoxCollider:
  m_ObjectHideFlags: 0
  m_CorrespondingSourceObject: {fileID: 0}
  m_PrefabInstance: {fileID: 0}
  m_PrefabAsset: {fileID: 0}
  m_GameObject: {fileID: 5741875591972670915}
  m_Material: {fileID: 0}
  m_IsTrigger: 0
  m_Enabled: 1
  serializedVersion: 2
  m_Size: {x: 29.014536, y: 17.280964, z: 18.60941}
  m_Center: {x: 1.6351763, y: -0.99560905, z: 1.281405}
