%YAML 1.1
%TAG !u! tag:unity3d.com,2011:
--- !u!114 &11400000
MonoBehaviour:
  m_ObjectHideFlags: 0
  m_CorrespondingSourceObject: {fileID: 0}
  m_PrefabInstance: {fileID: 0}
  m_PrefabAsset: {fileID: 0}
  m_GameObject: {fileID: 0}
  m_Enabled: 1
  m_EditorHideFlags: 0
  m_Script: {fileID: -1893448595, guid: a040fb66244a7f54289914d98ea4ef7d, type: 3}
  m_Name: Vector3Inverse
  m_EditorClassIdentifier: 
  _data:
    _json: '{"graph":{"variables":{"collection":{"$content":[],"$version":"A"},"$version":"A"},"controlInputDefinitions":[{"key":"enter","label":"Enter","summary":"The
      entrance","hideLabel":false}],"controlOutputDefinitions":[{"key":"exit","label":"Exit","summary":null,"hideLabel":false}],"valueInputDefinitions":[{"hasDefaultValue":false,"defaultValue":{"x":0.0,"y":0.0,"z":0.0,"$type":"UnityEngine.Vector3"},"_type":"UnityEngine.Vector3","key":"inputvector","label":"Input
      Vector","summary":"Input vector2","hideLabel":false}],"valueOutputDefinitions":[{"_type":"UnityEngine.Vector3","key":"result","label":"Result","summary":"The
      output vector3","hideLabel":false}],"title":"Vector2 Clone","summary":"Clone
      a vector2 from a vector2","pan":{"x":-60.81706,"y":-52.03972},"zoom":0.6999999,"elements":[{"defaultValues":{},"position":{"x":-491.0,"y":-154.0},"guid":"06666d4d-7415-44ce-9a2b-9b816a0072b5","$version":"A","$type":"Bolt.GraphInput","$id":"13"},{"defaultValues":{},"position":{"x":225.0,"y":-167.0},"guid":"40ad471c-5103-4ae5-bee4-11e2d19b9e9c","$version":"A","$type":"Bolt.GraphOutput","$id":"15"},{"type":"System.Int32","value":{"$content":-1,"$type":"System.Int32"},"defaultValues":{},"position":{"x":-276.0,"y":-121.0},"guid":"73213e3d-2a70-4723-a8ff-4c84ecad0276","$version":"A","$type":"Bolt.Literal","$id":"17"},{"defaultValues":{"b":{"$content":1.0,"$type":"System.Single"}},"position":{"x":-104.0,"y":-206.0},"guid":"e96dc76e-d3af-4b1f-b8bb-cd7b2f993029","$version":"A","$type":"Bolt.ScalarMultiply","$id":"19"},{"defaultValues":{"b":{"$content":1.0,"$type":"System.Single"}},"position":{"x":-104.0,"y":-52.0},"guid":"f3991216-3f76-4f5a-af92-475b1f37a04f","$version":"A","$type":"Bolt.ScalarMultiply","$id":"21"},{"defaultValues":{"b":{"$content":1.0,"$type":"System.Single"}},"position":{"x":-106.0,"y":83.0},"guid":"f181f109-1219-4027-acba-958049c4c725","$version":"A","$type":"Bolt.ScalarMultiply","$id":"23"},{"member":{"name":"x","parameterTypes":null,"targetType":"UnityEngine.Vector3","targetTypeName":"UnityEngine.Vector3","$version":"A"},"defaultValues":{"target":{"x":0.0,"y":0.0,"z":0.0,"$type":"UnityEngine.Vector3"}},"position":{"x":-290.0,"y":-285.0},"guid":"d9e53a53-619c-470f-80e1-3ec833e560ad","$version":"A","$type":"Bolt.GetMember","$id":"25"},{"member":{"name":"y","parameterTypes":null,"targetType":"UnityEngine.Vector3","targetTypeName":"UnityEngine.Vector3","$version":"A"},"defaultValues":{"target":{"x":0.0,"y":0.0,"z":0.0,"$type":"UnityEngine.Vector3"}},"position":{"x":-280.0,"y":2.0},"guid":"b22939d2-5e9f-42a9-9a9c-54a7d21dff62","$version":"A","$type":"Bolt.GetMember","$id":"28"},{"member":{"name":"z","parameterTypes":null,"targetType":"UnityEngine.Vector3","targetTypeName":"UnityEngine.Vector3","$version":"A"},"defaultValues":{"target":{"x":0.0,"y":0.0,"z":0.0,"$type":"UnityEngine.Vector3"}},"position":{"x":-277.0,"y":125.0},"guid":"ca57377e-e09a-42fc-a7a4-49603d296562","$version":"A","$type":"Bolt.GetMember","$id":"31"},{"chainable":false,"member":{"name":".ctor","parameterTypes":["System.Single","System.Single","System.Single"],"targetType":"UnityEngine.Vector3","targetTypeName":"UnityEngine.Vector3","$version":"A"},"defaultValues":{"%x":{"$content":0.0,"$type":"System.Single"},"%y":{"$content":0.0,"$type":"System.Single"},"%z":{"$content":0.0,"$type":"System.Single"}},"position":{"x":71.0,"y":-163.0},"guid":"fe747e97-b5e4-46eb-8cf2-32c46a4ef4f5","$version":"A","$type":"Bolt.InvokeMember","$id":"34"},{"sourceUnit":{"$ref":"17"},"sourceKey":"output","destinationUnit":{"$ref":"21"},"destinationKey":"b","guid":"b875b6ac-7d78-47ff-a5a0-c051b3e4e79f","$type":"Bolt.ValueConnection"},{"sourceUnit":{"$ref":"17"},"sourceKey":"output","destinationUnit":{"$ref":"19"},"destinationKey":"b","guid":"befdaa07-95d7-41f8-b678-94e1599af6d9","$type":"Bolt.ValueConnection"},{"sourceUnit":{"$ref":"13"},"sourceKey":"inputvector","destinationUnit":{"$ref":"25"},"destinationKey":"target","guid":"cdd98480-b6ec-489c-babf-833cd99061a3","$type":"Bolt.ValueConnection"},{"sourceUnit":{"$ref":"25"},"sourceKey":"value","destinationUnit":{"$ref":"19"},"destinationKey":"a","guid":"91c82c4c-2c40-48bf-a60c-29397e6efb2b","$type":"Bolt.ValueConnection"},{"sourceUnit":{"$ref":"13"},"sourceKey":"inputvector","destinationUnit":{"$ref":"28"},"destinationKey":"target","guid":"7463e1af-316a-4e7f-b19e-eb60b325809d","$type":"Bolt.ValueConnection"},{"sourceUnit":{"$ref":"28"},"sourceKey":"value","destinationUnit":{"$ref":"21"},"destinationKey":"a","guid":"a69cc10d-9772-40d9-922f-e1f86d3a7bb9","$type":"Bolt.ValueConnection"},{"sourceUnit":{"$ref":"31"},"sourceKey":"value","destinationUnit":{"$ref":"23"},"destinationKey":"a","guid":"6a4f9e30-a58a-45e8-976a-2e0d3723eff4","$type":"Bolt.ValueConnection"},{"sourceUnit":{"$ref":"13"},"sourceKey":"inputvector","destinationUnit":{"$ref":"31"},"destinationKey":"target","guid":"9d066227-1b9c-4f8c-b0d4-2b0e45919e3f","$type":"Bolt.ValueConnection"},{"sourceUnit":{"$ref":"17"},"sourceKey":"output","destinationUnit":{"$ref":"23"},"destinationKey":"b","guid":"2409467a-2902-4916-bf8a-b2e5d21578d1","$type":"Bolt.ValueConnection"},{"sourceUnit":{"$ref":"19"},"sourceKey":"product","destinationUnit":{"$ref":"34"},"destinationKey":"%x","guid":"cab5f8ac-3484-4e22-a113-636499c194e3","$type":"Bolt.ValueConnection"},{"sourceUnit":{"$ref":"21"},"sourceKey":"product","destinationUnit":{"$ref":"34"},"destinationKey":"%y","guid":"6f9cd9b8-ed29-4650-8356-b28da29cf6f6","$type":"Bolt.ValueConnection"},{"sourceUnit":{"$ref":"34"},"sourceKey":"result","destinationUnit":{"$ref":"15"},"destinationKey":"result","guid":"0f50f7fe-662f-4f43-b8f6-12a947538da8","$type":"Bolt.ValueConnection"},{"sourceUnit":{"$ref":"23"},"sourceKey":"product","destinationUnit":{"$ref":"34"},"destinationKey":"%z","guid":"d1f7f31c-80ac-41e7-b5bd-128cae9f2d6d","$type":"Bolt.ValueConnection"}],"$version":"A"}}'
    _objectReferences: []
