%YAML 1.1
%TAG !u! tag:unity3d.com,2011:
--- !u!114 &11400000
MonoBehaviour:
  m_ObjectHideFlags: 0
  m_CorrespondingSourceObject: {fileID: 0}
  m_PrefabInstance: {fileID: 0}
  m_PrefabAsset: {fileID: 0}
  m_GameObject: {fileID: 0}
  m_Enabled: 1
  m_EditorHideFlags: 0
  m_Script: {fileID: -1893448595, guid: a040fb66244a7f54289914d98ea4ef7d, type: 3}
  m_Name: LookIntoAnObject
  m_EditorClassIdentifier: 
  _data:
    _json: '{"graph":{"variables":{"collection":{"$content":[],"$version":"A"},"$version":"A"},"controlInputDefinitions":[{"key":"enter","label":null,"summary":null,"hideLabel":false}],"controlOutputDefinitions":[{"key":"exit","label":null,"summary":null,"hideLabel":false}],"valueInputDefinitions":[{"hasDefaultValue":true,"defaultValue":null,"_type":"UnityEngine.Camera","key":"camera","label":"Camera","summary":null,"hideLabel":false},{"hasDefaultValue":false,"defaultValue":null,"_type":"UnityEngine.GameObject","key":"target","label":"Target","summary":null,"hideLabel":false}],"valueOutputDefinitions":[],"title":"LookIntoAnObject","summary":null,"pan":{"x":108.32,"y":-94.04568},"zoom":0.4999999,"elements":[{"defaultValues":{},"position":{"x":-313.0,"y":-252.0},"guid":"59035e1d-79f9-48b4-8c00-312a3229fb03","$version":"A","$type":"Bolt.GraphInput","$id":"13"},{"member":{"name":"transform","parameterTypes":null,"targetType":"UnityEngine.Camera","targetTypeName":"UnityEngine.Camera","$version":"A"},"defaultValues":{"target":null},"position":{"x":-153.0,"y":-127.0},"guid":"f1ad77e6-7a9a-47e2-9c61-0e55c8a5b4fa","$version":"A","$type":"Bolt.GetMember","$id":"15"},{"member":{"name":"transform","parameterTypes":null,"targetType":"UnityEngine.GameObject","targetTypeName":"UnityEngine.GameObject","$version":"A"},"defaultValues":{"target":null},"position":{"x":-146.0,"y":-10.0},"guid":"9f99ecaa-106b-4d7f-9ac5-ba6d86fc7fe2","$version":"A","$type":"Bolt.GetMember","$id":"18"},{"chainable":false,"member":{"name":"LookAt","parameterTypes":["UnityEngine.Vector3"],"targetType":"UnityEngine.Transform","targetTypeName":"UnityEngine.Transform","$version":"A"},"defaultValues":{"target":null,"%worldPosition":{"x":0.0,"y":0.0,"z":0.0,"$type":"UnityEngine.Vector3"}},"position":{"x":197.0,"y":-254.0},"guid":"f3e85798-4529-43a4-9664-aa36c7ec1f6d","$version":"A","$type":"Bolt.InvokeMember","$id":"21"},{"member":{"name":"position","parameterTypes":null,"targetType":"UnityEngine.Transform","targetTypeName":"UnityEngine.Transform","$version":"A"},"defaultValues":{"target":null},"position":{"x":62.0,"y":-16.0},"guid":"1e98c9e2-446a-4ac5-a763-b9658ba8d3bb","$version":"A","$type":"Bolt.GetMember","$id":"24"},{"defaultValues":{},"position":{"x":402.0,"y":-234.0},"guid":"cba142cf-980b-42cd-89e1-3d5ad0daefea","$version":"A","$type":"Bolt.GraphOutput","$id":"27"},{"sourceUnit":{"$ref":"21"},"sourceKey":"exit","destinationUnit":{"$ref":"27"},"destinationKey":"exit","guid":"03f6759b-dac8-4500-b574-5ad6feb87747","$type":"Bolt.ControlConnection"},{"sourceUnit":{"$ref":"13"},"sourceKey":"enter","destinationUnit":{"$ref":"21"},"destinationKey":"enter","guid":"cccb738b-84a1-426e-aca3-49d4d63aa249","$type":"Bolt.ControlConnection"},{"sourceUnit":{"$ref":"15"},"sourceKey":"value","destinationUnit":{"$ref":"21"},"destinationKey":"target","guid":"12c892c1-2639-41b9-acd0-5e47bcff2701","$type":"Bolt.ValueConnection"},{"sourceUnit":{"$ref":"18"},"sourceKey":"value","destinationUnit":{"$ref":"24"},"destinationKey":"target","guid":"06763d42-cd48-41a3-b599-11775dfc71e5","$type":"Bolt.ValueConnection"},{"sourceUnit":{"$ref":"24"},"sourceKey":"value","destinationUnit":{"$ref":"21"},"destinationKey":"%worldPosition","guid":"b06bbcad-2060-4092-b34a-30c5363ae3a2","$type":"Bolt.ValueConnection"},{"sourceUnit":{"$ref":"13"},"sourceKey":"camera","destinationUnit":{"$ref":"15"},"destinationKey":"target","guid":"8a419a87-4a42-4cd4-a5eb-4d83ae97b920","$type":"Bolt.ValueConnection"},{"sourceUnit":{"$ref":"13"},"sourceKey":"target","destinationUnit":{"$ref":"18"},"destinationKey":"target","guid":"22be2e13-4c35-4c17-91dc-7fcf42f840f6","$type":"Bolt.ValueConnection"}],"$version":"A"}}'
    _objectReferences: []
