%YAML 1.1
%TAG !u! tag:unity3d.com,2011:
--- !u!114 &11400000
MonoBehaviour:
  m_ObjectHideFlags: 0
  m_CorrespondingSourceObject: {fileID: 0}
  m_PrefabInstance: {fileID: 0}
  m_PrefabAsset: {fileID: 0}
  m_GameObject: {fileID: 0}
  m_Enabled: 1
  m_EditorHideFlags: 0
  m_Script: {fileID: -1893448595, guid: a040fb66244a7f54289914d98ea4ef7d, type: 3}
  m_Name: ColorHtmlStringToRGB
  m_EditorClassIdentifier: 
  _data:
    _json: '{"graph":{"variables":{"collection":{"$content":[],"$version":"A"},"$version":"A"},"controlInputDefinitions":[],"controlOutputDefinitions":[],"valueInputDefinitions":[{"hasDefaultValue":false,"defaultValue":{"$content":"","$type":"System.String"},"_type":"System.String","key":"inputcolor","label":"Color
      string","summary":"The input color","hideLabel":false}],"valueOutputDefinitions":[{"_type":"UnityEngine.Color","key":"color","label":"Color","summary":null,"hideLabel":false}],"title":"Color
      html string to RGB","summary":null,"pan":{"x":-250.3913,"y":233.1831},"zoom":0.35,"elements":[{"defaultValues":{},"position":{"x":600.0,"y":0.0},"guid":"cd2401bd-0117-4b40-804c-f999a5e9166d","$version":"A","$type":"Bolt.GraphOutput","$id":"11"},{"chainable":false,"member":{"name":"Parse","parameterTypes":["System.String","System.Globalization.NumberStyles"],"targetType":"System.Int32","targetTypeName":"System.Int32","$version":"A"},"defaultValues":{"%s":{"$content":"","$type":"System.String"},"%style":{"$content":"AllowLeadingWhite,AllowTrailingWhite,AllowHexSpecifier,HexNumber","$type":"System.Globalization.NumberStyles"}},"position":{"x":-120.0,"y":-240.0},"guid":"8ddc7ebe-896a-4b18-bfc7-e1304ae30b7e","$version":"A","$type":"Bolt.InvokeMember","$id":"13"},{"defaultValues":{},"position":{"x":-600.0,"y":0.0},"guid":"02c8a0a9-0f3a-4615-89a8-21e19092939e","$version":"A","$type":"Bolt.GraphInput","$id":"16"},{"chainable":false,"member":{"name":"Substring","parameterTypes":["System.Int32","System.Int32"],"targetType":"System.String","targetTypeName":"System.String","$version":"A"},"defaultValues":{"target":{"$content":"","$type":"System.String"},"%startIndex":{"$content":0,"$type":"System.Int32"},"%length":{"$content":2,"$type":"System.Int32"}},"position":{"x":-360.0,"y":-264.0},"guid":"ec6ccee0-9b1f-41fd-9522-c6b91778c753","$version":"A","$type":"Bolt.InvokeMember","$id":"18"},{"chainable":false,"member":{"name":"Substring","parameterTypes":["System.Int32","System.Int32"],"targetType":"System.String","targetTypeName":"System.String","$version":"A"},"defaultValues":{"target":{"$content":"","$type":"System.String"},"%startIndex":{"$content":4,"$type":"System.Int32"},"%length":{"$content":2,"$type":"System.Int32"}},"position":{"x":-360.0,"y":240.0},"guid":"005de68b-c615-43b8-8228-1e7fbb89ac8b","$version":"A","$type":"Bolt.InvokeMember","$id":"21"},{"chainable":false,"member":{"name":".ctor","parameterTypes":["System.Single","System.Single","System.Single"],"targetType":"UnityEngine.Color","targetTypeName":"UnityEngine.Color","$version":"A"},"defaultValues":{"%r":{"$content":0.0,"$type":"System.Single"},"%g":{"$content":0.0,"$type":"System.Single"},"%b":{"$content":0.0,"$type":"System.Single"}},"position":{"x":360.0,"y":0.0},"guid":"767fb4b3-7093-4ab6-b535-03ef7e8531f6","$version":"A","$type":"Bolt.InvokeMember","$id":"24"},{"chainable":false,"member":{"name":"Substring","parameterTypes":["System.Int32","System.Int32"],"targetType":"System.String","targetTypeName":"System.String","$version":"A"},"defaultValues":{"target":{"$content":"","$type":"System.String"},"%startIndex":{"$content":2,"$type":"System.Int32"},"%length":{"$content":2,"$type":"System.Int32"}},"position":{"x":-360.0,"y":0.0},"guid":"349e8020-a7eb-4626-ae3b-ccf99cc986d2","$version":"A","$type":"Bolt.InvokeMember","$id":"27"},{"chainable":false,"member":{"name":"Parse","parameterTypes":["System.String","System.Globalization.NumberStyles"],"targetType":"System.Int32","targetTypeName":"System.Int32","$version":"A"},"defaultValues":{"%s":{"$content":"","$type":"System.String"},"%style":{"$content":"AllowLeadingWhite,AllowTrailingWhite,AllowHexSpecifier,HexNumber","$type":"System.Globalization.NumberStyles"}},"position":{"x":-120.0,"y":240.0},"guid":"d206ed26-32c9-4cc5-8864-db35533bb4b2","$version":"A","$type":"Bolt.InvokeMember","$id":"30"},{"defaultValues":{"dividend":{"$content":1.0,"$type":"System.Single"},"divisor":{"$content":255.0,"$type":"System.Single"}},"position":{"x":120.0,"y":-216.0},"guid":"62929f29-377e-4b98-8d9c-4934d6f62d3a","$version":"A","$type":"Bolt.ScalarDivide","$id":"33"},{"defaultValues":{"dividend":{"$content":1.0,"$type":"System.Single"},"divisor":{"$content":255.0,"$type":"System.Single"}},"position":{"x":120.0,"y":0.0},"guid":"4feeb51e-5f0e-40f8-8839-e3320b28795c","$version":"A","$type":"Bolt.ScalarDivide","$id":"35"},{"defaultValues":{"dividend":{"$content":1.0,"$type":"System.Single"},"divisor":{"$content":255.0,"$type":"System.Single"}},"position":{"x":120.0,"y":240.0},"guid":"a24ef503-e2d6-4fed-98e4-f9d40be4a63d","$version":"A","$type":"Bolt.ScalarDivide","$id":"37"},{"chainable":false,"member":{"name":"Parse","parameterTypes":["System.String","System.Globalization.NumberStyles"],"targetType":"System.Int32","targetTypeName":"System.Int32","$version":"A"},"defaultValues":{"%s":{"$content":"","$type":"System.String"},"%style":{"$content":"AllowLeadingWhite,AllowTrailingWhite,AllowHexSpecifier,HexNumber","$type":"System.Globalization.NumberStyles"}},"position":{"x":-120.0,"y":0.0},"guid":"524c4cca-0f07-411d-a9a0-aa236edd4d76","$version":"A","$type":"Bolt.InvokeMember","$id":"39"},{"sourceUnit":{"$ref":"13"},"sourceKey":"result","destinationUnit":{"$ref":"33"},"destinationKey":"dividend","guid":"d7470835-2bb9-47f1-8f84-aff81551c722","$type":"Bolt.ValueConnection"},{"sourceUnit":{"$ref":"16"},"sourceKey":"inputcolor","destinationUnit":{"$ref":"21"},"destinationKey":"target","guid":"b675ff15-8b84-40f1-8110-fb2eedfeaed5","$type":"Bolt.ValueConnection"},{"sourceUnit":{"$ref":"27"},"sourceKey":"result","destinationUnit":{"$ref":"39"},"destinationKey":"%s","guid":"3ecf8360-fbc4-432d-8308-3ecd7bdd14ba","$type":"Bolt.ValueConnection"},{"sourceUnit":{"$ref":"21"},"sourceKey":"result","destinationUnit":{"$ref":"30"},"destinationKey":"%s","guid":"f0388c77-bd2c-43d6-8691-3951eb8870c5","$type":"Bolt.ValueConnection"},{"sourceUnit":{"$ref":"39"},"sourceKey":"result","destinationUnit":{"$ref":"35"},"destinationKey":"dividend","guid":"1f68d6f2-095f-49f3-8b29-82f444566c78","$type":"Bolt.ValueConnection"},{"sourceUnit":{"$ref":"35"},"sourceKey":"quotient","destinationUnit":{"$ref":"24"},"destinationKey":"%g","guid":"af85a7b1-17fb-48f8-95cc-98249c6e7c39","$type":"Bolt.ValueConnection"},{"sourceUnit":{"$ref":"33"},"sourceKey":"quotient","destinationUnit":{"$ref":"24"},"destinationKey":"%r","guid":"03c1ae70-da18-4b2c-9d76-457ac69cb1fd","$type":"Bolt.ValueConnection"},{"sourceUnit":{"$ref":"37"},"sourceKey":"quotient","destinationUnit":{"$ref":"24"},"destinationKey":"%b","guid":"983ff516-11e7-4e38-b9b6-69de9a787c09","$type":"Bolt.ValueConnection"},{"sourceUnit":{"$ref":"16"},"sourceKey":"inputcolor","destinationUnit":{"$ref":"18"},"destinationKey":"target","guid":"cc420036-af3e-4a55-a211-5dff40dd2ccc","$type":"Bolt.ValueConnection"},{"sourceUnit":{"$ref":"16"},"sourceKey":"inputcolor","destinationUnit":{"$ref":"27"},"destinationKey":"target","guid":"75cdeab3-01e7-4a43-bbb5-d873bf18bab8","$type":"Bolt.ValueConnection"},{"sourceUnit":{"$ref":"30"},"sourceKey":"result","destinationUnit":{"$ref":"37"},"destinationKey":"dividend","guid":"0e646176-cb1f-47c7-95fd-d69f797f9c71","$type":"Bolt.ValueConnection"},{"sourceUnit":{"$ref":"18"},"sourceKey":"result","destinationUnit":{"$ref":"13"},"destinationKey":"%s","guid":"d0ba9a35-0d68-4c04-8798-76f7a7563efe","$type":"Bolt.ValueConnection"},{"sourceUnit":{"$ref":"24"},"sourceKey":"result","destinationUnit":{"$ref":"11"},"destinationKey":"color","guid":"3da8a9fb-1176-4d03-ba5d-0c3ca6377958","$type":"Bolt.ValueConnection"}],"$version":"A"}}'
    _objectReferences: []
