%YAML 1.1
%TAG !u! tag:unity3d.com,2011:
--- !u!114 &11400000
MonoBehaviour:
  m_ObjectHideFlags: 0
  m_CorrespondingSourceObject: {fileID: 0}
  m_PrefabInstance: {fileID: 0}
  m_PrefabAsset: {fileID: 0}
  m_GameObject: {fileID: 0}
  m_Enabled: 1
  m_EditorHideFlags: 0
  m_Script: {fileID: -1893448595, guid: a040fb66244a7f54289914d98ea4ef7d, type: 3}
  m_Name: GetMinItem
  m_EditorClassIdentifier: 
  _data:
    _json: '{"graph":{"variables":{"collection":{"$content":[{"name":"Index","value":{"$content":0,"$type":"System.Int32"},"$version":"A"},{"name":"Value","value":{"$content":0.0,"$type":"System.Single"},"$version":"A"}],"$version":"A"},"$version":"A"},"controlInputDefinitions":[{"key":"enter","label":"Enter","summary":null,"hideLabel":false}],"controlOutputDefinitions":[{"key":"exit","label":"Exit","summary":null,"hideLabel":false}],"valueInputDefinitions":[{"hasDefaultValue":false,"defaultValue":null,"_type":"Ludiq.AotList","key":"list","label":"List","summary":null,"hideLabel":false}],"valueOutputDefinitions":[{"_type":"System.Int32","key":"index","label":"Index","summary":null,"hideLabel":false},{"_type":"System.Single","key":"value","label":"Value","summary":null,"hideLabel":false}],"title":"Get
      the min item in a list","summary":null,"pan":{"x":221.4074,"y":-36.43157},"zoom":0.8499999,"elements":[{"defaultValues":{},"position":{"x":509.0,"y":-364.0},"guid":"89fa2288-1a87-4aa0-8813-427b74b253c3","$version":"A","$type":"Bolt.GraphOutput","$id":"16"},{"defaultValues":{},"position":{"x":225.0,"y":-208.0},"guid":"547c4964-0415-45e6-964f-bb51e36be4ad","$version":"A","$type":"Bolt.Branch","$id":"18"},{"defaultValues":{},"position":{"x":-336.0,"y":-206.0},"guid":"eadb0857-b333-4cd4-a21b-224c3cd63b29","$version":"A","$type":"Bolt.GraphInput","$id":"20"},{"dictionary":false,"defaultValues":{},"position":{"x":-15.0,"y":-234.0},"guid":"ec35d697-0b1f-4b04-abf7-f257fd59d5ef","$version":"A","$type":"Bolt.ForEach","$id":"22"},{"kind":"Graph","defaultValues":{"name":{"$content":"Value","$type":"System.String"}},"position":{"x":352.0,"y":-47.0},"guid":"ed580cbb-ed89-432d-bb53-a439d41a8d94","$version":"A","$type":"Bolt.SetVariable","$id":"24"},{"specifyFallback":false,"kind":"Graph","defaultValues":{"name":{"$content":"Value","$type":"System.String"}},"position":{"x":344.0,"y":-226.0},"guid":"bbf43100-5886-4044-bd7d-f7034057198a","$version":"A","$type":"Bolt.GetVariable","$id":"26"},{"specifyFallback":false,"kind":"Graph","defaultValues":{"name":{"$content":"Value","$type":"System.String"}},"position":{"x":-71.0,"y":15.0},"guid":"3a9aab0f-469d-485a-90af-0ac01608d461","$version":"A","$type":"Bolt.GetVariable","$id":"28"},{"specifyFallback":false,"kind":"Graph","defaultValues":{"name":{"$content":"Index","$type":"System.String"}},"position":{"x":271.0,"y":-438.0},"guid":"3c95a8b7-94c6-4dce-ace2-ad7bf04435aa","$version":"A","$type":"Bolt.GetVariable","$id":"30"},{"kind":"Graph","defaultValues":{"name":{"$content":"Value","$type":"System.String"}},"position":{"x":-148.0,"y":-372.0},"guid":"8a52a3e1-6826-445f-b770-12198b17f3ae","$version":"A","$type":"Bolt.SetVariable","$id":"32"},{"member":{"name":"MaxValue","parameterTypes":null,"targetType":"System.Single","targetTypeName":"System.Single","$version":"A"},"defaultValues":{},"position":{"x":-378.0,"y":-382.0},"guid":"6d581697-3259-4027-ae90-4995039fcd51","$version":"A","$type":"Bolt.GetMember","$id":"34"},{"numeric":true,"defaultValues":{"b":{"$content":0.0,"$type":"System.Single"}},"position":{"x":147.0,"y":2.0},"guid":"04d53475-35de-454a-9a74-1b9b76801a1d","$version":"A","$type":"Bolt.Less","$id":"37"},{"kind":"Graph","defaultValues":{"name":{"$content":"Index","$type":"System.String"}},"position":{"x":549.0,"y":-51.0},"guid":"23c138b8-39f2-4fed-a432-85827e0b1a23","$version":"A","$type":"Bolt.SetVariable","$id":"39"},{"sourceUnit":{"$ref":"18"},"sourceKey":"ifTrue","destinationUnit":{"$ref":"24"},"destinationKey":"assign","guid":"debe0b11-13e6-47fd-9c5c-a0a7bc664f0b","$type":"Bolt.ControlConnection"},{"sourceUnit":{"$ref":"24"},"sourceKey":"assigned","destinationUnit":{"$ref":"39"},"destinationKey":"assign","guid":"2a0ea4a0-4c4d-4947-a0bc-68183b0d5cda","$type":"Bolt.ControlConnection"},{"sourceUnit":{"$ref":"22"},"sourceKey":"exit","destinationUnit":{"$ref":"16"},"destinationKey":"exit","guid":"3d1b7b25-4620-46e0-89e0-97384d5b321d","$type":"Bolt.ControlConnection"},{"sourceUnit":{"$ref":"20"},"sourceKey":"enter","destinationUnit":{"$ref":"32"},"destinationKey":"assign","guid":"3d6a0715-fe46-4291-aa71-5f4cc99c29da","$type":"Bolt.ControlConnection"},{"sourceUnit":{"$ref":"32"},"sourceKey":"assigned","destinationUnit":{"$ref":"22"},"destinationKey":"enter","guid":"41c08277-5fcd-433d-b1db-57f193997529","$type":"Bolt.ControlConnection"},{"sourceUnit":{"$ref":"22"},"sourceKey":"body","destinationUnit":{"$ref":"18"},"destinationKey":"enter","guid":"e7baef14-a012-4da5-8ae0-77fcf3ca4261","$type":"Bolt.ControlConnection"},{"sourceUnit":{"$ref":"34"},"sourceKey":"value","destinationUnit":{"$ref":"32"},"destinationKey":"input","guid":"19e5f136-a8e4-4322-ada0-916509a159ba","$type":"Bolt.ValueConnection"},{"sourceUnit":{"$ref":"22"},"sourceKey":"currentIndex","destinationUnit":{"$ref":"39"},"destinationKey":"input","guid":"67657b53-06e5-43bd-8a39-99e41a58ab18","$type":"Bolt.ValueConnection"},{"sourceUnit":{"$ref":"30"},"sourceKey":"value","destinationUnit":{"$ref":"16"},"destinationKey":"index","guid":"a5baf7be-548a-4807-a633-78f66e05ee56","$type":"Bolt.ValueConnection"},{"sourceUnit":{"$ref":"26"},"sourceKey":"value","destinationUnit":{"$ref":"16"},"destinationKey":"value","guid":"ab8e96dd-f65b-4eee-9bf3-90c82b2005f0","$type":"Bolt.ValueConnection"},{"sourceUnit":{"$ref":"20"},"sourceKey":"list","destinationUnit":{"$ref":"22"},"destinationKey":"collection","guid":"42ecf3ae-0093-4ff1-9af0-83849061e000","$type":"Bolt.ValueConnection"},{"sourceUnit":{"$ref":"22"},"sourceKey":"currentItem","destinationUnit":{"$ref":"24"},"destinationKey":"input","guid":"011f11ba-2cc8-46c4-8aa8-0f86ba1ea124","$type":"Bolt.ValueConnection"},{"sourceUnit":{"$ref":"37"},"sourceKey":"comparison","destinationUnit":{"$ref":"18"},"destinationKey":"condition","guid":"04e106d4-ee03-4988-b2cb-33bae3dc8af1","$type":"Bolt.ValueConnection"},{"sourceUnit":{"$ref":"22"},"sourceKey":"currentItem","destinationUnit":{"$ref":"37"},"destinationKey":"a","guid":"91dabcc9-73c2-4a00-99ec-50667c4c7bc7","$type":"Bolt.ValueConnection"},{"sourceUnit":{"$ref":"28"},"sourceKey":"value","destinationUnit":{"$ref":"37"},"destinationKey":"b","guid":"e5d6b5b8-4c68-404b-9fde-79c23395035d","$type":"Bolt.ValueConnection"}],"$version":"A"}}'
    _objectReferences: []
