%YAML 1.1
%TAG !u! tag:unity3d.com,2011:
--- !u!114 &11400000
MonoBehaviour:
  m_ObjectHideFlags: 0
  m_CorrespondingSourceObject: {fileID: 0}
  m_PrefabInstance: {fileID: 0}
  m_PrefabAsset: {fileID: 0}
  m_GameObject: {fileID: 0}
  m_Enabled: 1
  m_EditorHideFlags: 0
  m_Script: {fileID: -1893448595, guid: a040fb66244a7f54289914d98ea4ef7d, type: 3}
  m_Name: ShuffleList
  m_EditorClassIdentifier: 
  _data:
    _json: '{"graph":{"variables":{"collection":{"$content":[{"name":"n","value":{"$content":0,"$type":"System.Int32"},"$version":"A"},{"name":"TmpItem","value":null,"$version":"A"},{"name":"k","value":{"$content":0,"$type":"System.Int32"},"$version":"A"}],"$version":"A"},"$version":"A"},"controlInputDefinitions":[{"key":"enter","label":"Enter","summary":null,"hideLabel":false}],"controlOutputDefinitions":[{"key":"out","label":null,"summary":null,"hideLabel":false}],"valueInputDefinitions":[{"hasDefaultValue":false,"defaultValue":null,"_type":"System.Collections.IList","key":"list","label":"List","summary":"The
      input list","hideLabel":false}],"valueOutputDefinitions":[{"_type":"System.Collections.IList","key":"item","label":"Result","summary":"Shuffled
      list","hideLabel":false}],"title":null,"summary":null,"pan":{"x":235.8571,"y":360.3429},"zoom":0.25,"elements":[{"defaultValues":{},"position":{"x":-360.0,"y":-480.0},"guid":"51ce4662-aa79-4b4b-b95e-c67f8c3d6320","$version":"A","$type":"Bolt.GraphInput","$id":"16"},{"outputCount":5,"defaultValues":{},"position":{"x":439.0,"y":245.0},"guid":"0ca7793d-6d26-4c08-b161-4db04c731cf0","$version":"A","$type":"Bolt.Sequence","$id":"18"},{"defaultValues":{"index":{"$content":0,"$type":"System.Int32"}},"position":{"x":1320.0,"y":480.0},"guid":"3b268dd0-3e2b-4f10-9775-47792388db46","$version":"A","$type":"Bolt.SetListItem","$id":"20"},{"numeric":true,"defaultValues":{"b":{"$content":1.0,"$type":"System.Single"}},"position":{"x":0.0,"y":264.0},"guid":"fb610c33-ff35-4d50-88f3-d0b55556aaa7","$version":"A","$type":"Bolt.Greater","$id":"22"},{"specifyFallback":false,"kind":"Graph","defaultValues":{"name":{"$content":"n","$type":"System.String"}},"position":{"x":-240.0,"y":276.0},"guid":"27d6052a-9cef-4be8-b834-479040db22e3","$version":"A","$type":"Bolt.GetVariable","$id":"24"},{"kind":"Graph","defaultValues":{"name":{"$content":"n","$type":"System.String"}},"position":{"x":60.0,"y":-180.0},"guid":"7781c5b9-8b34-4e3d-8c3c-2b4d30bfa7cd","$version":"A","$type":"Bolt.SetVariable","$id":"26"},{"defaultValues":{},"position":{"x":708.0,"y":-336.0},"guid":"7877f175-528e-431e-a511-f01584229cbb","$version":"A","$type":"Bolt.GenericAdd","$id":"28"},{"defaultValues":{},"position":{"x":360.0,"y":-480.0},"guid":"76e0a64c-e337-4e13-aa2a-7561556c9c66","$version":"A","$type":"Bolt.GraphOutput","$id":"30"},{"specifyFallback":false,"kind":"Graph","defaultValues":{"name":{"$content":"n","$type":"System.String"}},"position":{"x":960.0,"y":-600.0},"guid":"ce48da3d-b62f-471d-acbd-30e630860cb8","$version":"A","$type":"Bolt.GetVariable","$id":"32"},{"specifyFallback":false,"kind":"Graph","defaultValues":{"name":{"$content":"n","$type":"System.String"}},"position":{"x":552.0,"y":-360.0},"guid":"e0700fb8-2f16-4d47-a8f0-be4f4976302c","$version":"A","$type":"Bolt.GetVariable","$id":"34"},{"specifyFallback":false,"kind":"Graph","defaultValues":{"name":{"$content":"n","$type":"System.String"}},"position":{"x":720.0,"y":480.0},"guid":"b5b8ea4a-9cd0-42c9-b4d3-960407021d52","$version":"A","$type":"Bolt.GetVariable","$id":"36"},{"defaultValues":{},"position":{"x":240.0,"y":0.0},"guid":"0555585a-8c69-4359-a57a-c5f0f692ec5f","$version":"A","$type":"Bolt.While","$id":"38"},{"nest":{"source":"Macro","macro":0,"embed":null},"defaultValues":{"number":{"$content":0,"$type":"System.Int32"}},"position":{"x":1200.0,"y":-600.0},"guid":"31ae5b5b-7bb3-4eb1-b46c-0b38ea8222d5","$version":"A","$type":"Bolt.SuperUnit","$id":"40"},{"defaultValues":{"index":{"$content":0,"$type":"System.Int32"}},"position":{"x":1320.0,"y":240.0},"guid":"cecaf3de-8d7a-432d-aa10-8633e8631023","$version":"A","$type":"Bolt.SetListItem","$id":"43"},{"defaultValues":{"index":{"$content":0,"$type":"System.Int32"}},"position":{"x":1265.0,"y":-67.0},"guid":"12435b25-0bcc-46dc-b6e3-8a6b76c82cf1","$version":"A","$type":"Bolt.GetListItem","$id":"45"},{"specifyFallback":false,"kind":"Graph","defaultValues":{"name":{"$content":"k","$type":"System.String"}},"position":{"x":960.0,"y":-132.0},"guid":"3201714c-9eba-4e6e-bc87-708117ad43ed","$version":"A","$type":"Bolt.GetVariable","$id":"47"},{"kind":"Graph","defaultValues":{"name":{"$content":"k","$type":"System.String"}},"position":{"x":1092.0,"y":-348.0},"guid":"df5ce1b9-b2ab-4367-8693-67fc5576824b","$version":"A","$type":"Bolt.SetVariable","$id":"49"},{"defaultValues":{"index":{"$content":0,"$type":"System.Int32"}},"position":{"x":1113.0,"y":270.0},"guid":"bbd8611b-dd00-4be3-a895-1747085c53ca","$version":"A","$type":"Bolt.GetListItem","$id":"51"},{"kind":"Graph","defaultValues":{"name":{"$content":"n","$type":"System.String"}},"position":{"x":1440.0,"y":-360.0},"guid":"a78d45bc-febf-4c19-9683-961576adef1b","$version":"A","$type":"Bolt.SetVariable","$id":"53"},{"defaultValues":{},"position":{"x":-135.0,"y":0.0},"guid":"b1923b9d-099b-4e9d-8bb6-a7d98a61bf4d","$version":"A","$type":"Bolt.CountItems","$id":"55"},{"type":"System.Int32","value":{"$content":1,"$type":"System.Int32"},"defaultValues":{},"position":{"x":600.0,"y":-240.0},"guid":"650dc974-9dd3-45c6-bd18-a1121d64d47f","$version":"A","$type":"Bolt.Literal","$id":"57"},{"specifyFallback":false,"kind":"Graph","defaultValues":{"name":{"$content":"TmpItem","$type":"System.String"}},"position":{"x":720.0,"y":636.0},"guid":"6bba67ee-f6c8-47a8-ada6-4513d3f299e2","$version":"A","$type":"Bolt.GetVariable","$id":"59"},{"chainable":false,"member":{"name":".ctor","parameterTypes":[],"targetType":"System.Random","targetTypeName":"System.Random","$version":"A"},"defaultValues":{},"position":{"x":720.0,"y":-480.0},"guid":"7dfff862-5d6e-4be3-b8ff-2e391579653a","$version":"A","$type":"Bolt.InvokeMember","$id":"61"},{"kind":"Graph","defaultValues":{"name":{"$content":"TmpItem","$type":"System.String"}},"position":{"x":1440.0,"y":-120.0},"guid":"7ef47008-4d27-4e25-9051-680bdf85f86a","$version":"A","$type":"Bolt.SetVariable","$id":"64"},{"chainable":false,"member":{"name":"Next","parameterTypes":["System.Int32"],"targetType":"System.Random","targetTypeName":"System.Random","$version":"A"},"defaultValues":{"%maxValue":{"$content":0,"$type":"System.Int32"}},"position":{"x":905.0,"y":-338.0},"guid":"5ee2051f-9c64-415f-8333-4bc40a6cdede","$version":"A","$type":"Bolt.InvokeMember","$id":"66"},{"sourceUnit":{"$ref":"26"},"sourceKey":"assigned","destinationUnit":{"$ref":"38"},"destinationKey":"enter","guid":"3f055e3f-b772-4340-9054-1ab8a730c88c","$type":"Bolt.ControlConnection"},{"sourceUnit":{"$ref":"18"},"sourceKey":"0","destinationUnit":{"$ref":"53"},"destinationKey":"assign","guid":"f9e8353c-a6f8-4128-b0e7-f3b9d79c3c94","$type":"Bolt.ControlConnection"},{"sourceUnit":{"$ref":"18"},"sourceKey":"4","destinationUnit":{"$ref":"20"},"destinationKey":"enter","guid":"ca442ced-ccae-4b0c-9e9e-af01dd207146","$type":"Bolt.ControlConnection"},{"sourceUnit":{"$ref":"18"},"sourceKey":"3","destinationUnit":{"$ref":"43"},"destinationKey":"enter","guid":"0f789c95-950b-4156-9b66-db700ab0498c","$type":"Bolt.ControlConnection"},{"sourceUnit":{"$ref":"38"},"sourceKey":"exit","destinationUnit":{"$ref":"30"},"destinationKey":"out","guid":"25353c72-bae8-4a6c-bb93-10c51150c1a4","$type":"Bolt.ControlConnection"},{"sourceUnit":{"$ref":"16"},"sourceKey":"enter","destinationUnit":{"$ref":"26"},"destinationKey":"assign","guid":"ab865436-1f79-4778-914b-371e2b95b2c7","$type":"Bolt.ControlConnection"},{"sourceUnit":{"$ref":"18"},"sourceKey":"2","destinationUnit":{"$ref":"64"},"destinationKey":"assign","guid":"e2687c55-f88f-45b6-80e4-abe0b33f49e7","$type":"Bolt.ControlConnection"},{"sourceUnit":{"$ref":"38"},"sourceKey":"body","destinationUnit":{"$ref":"18"},"destinationKey":"enter","guid":"1c1f65a9-cab2-4d1a-8073-789e2c5f871f","$type":"Bolt.ControlConnection"},{"sourceUnit":{"$ref":"18"},"sourceKey":"1","destinationUnit":{"$ref":"66"},"destinationKey":"enter","guid":"2b201d5c-00a5-4be4-8ff5-a24fa7f7e77e","$type":"Bolt.ControlConnection"},{"sourceUnit":{"$ref":"66"},"sourceKey":"exit","destinationUnit":{"$ref":"49"},"destinationKey":"assign","guid":"88221071-1a01-420b-b05e-0d1dd9821e3d","$type":"Bolt.ControlConnection"},{"sourceUnit":{"$ref":"59"},"sourceKey":"value","destinationUnit":{"$ref":"20"},"destinationKey":"item","guid":"af4d3526-96e5-4386-ac35-c56b744c26ba","$type":"Bolt.ValueConnection"},{"sourceUnit":{"$ref":"40"},"sourceKey":"after","destinationUnit":{"$ref":"53"},"destinationKey":"input","guid":"0ff20026-0275-4b40-9e7c-17ccd14a99e7","$type":"Bolt.ValueConnection"},{"sourceUnit":{"$ref":"16"},"sourceKey":"list","destinationUnit":{"$ref":"20"},"destinationKey":"list","guid":"db99cf6c-f525-4c65-a077-181466e55e2e","$type":"Bolt.ValueConnection"},{"sourceUnit":{"$ref":"57"},"sourceKey":"output","destinationUnit":{"$ref":"28"},"destinationKey":"b","guid":"0acc249f-0f07-4955-99ec-800873be165c","$type":"Bolt.ValueConnection"},{"sourceUnit":{"$ref":"16"},"sourceKey":"list","destinationUnit":{"$ref":"30"},"destinationKey":"item","guid":"ddaccf95-7cb0-4dd3-92ea-ccb0500d114c","$type":"Bolt.ValueConnection"},{"sourceUnit":{"$ref":"36"},"sourceKey":"value","destinationUnit":{"$ref":"51"},"destinationKey":"index","guid":"91c7a3e4-8412-404a-9c77-25824e186740","$type":"Bolt.ValueConnection"},{"sourceUnit":{"$ref":"24"},"sourceKey":"value","destinationUnit":{"$ref":"22"},"destinationKey":"a","guid":"e2f5bce3-0bbc-49da-b620-65384cbba6a5","$type":"Bolt.ValueConnection"},{"sourceUnit":{"$ref":"16"},"sourceKey":"list","destinationUnit":{"$ref":"43"},"destinationKey":"list","guid":"b577fbbf-cafc-42f0-8682-e3d1410d7794","$type":"Bolt.ValueConnection"},{"sourceUnit":{"$ref":"34"},"sourceKey":"value","destinationUnit":{"$ref":"28"},"destinationKey":"a","guid":"02e7baa3-e428-4081-b891-321ca6e19301","$type":"Bolt.ValueConnection"},{"sourceUnit":{"$ref":"61"},"sourceKey":"result","destinationUnit":{"$ref":"66"},"destinationKey":"target","guid":"081a9f15-1756-4e1c-bbb5-75aefbbd3422","$type":"Bolt.ValueConnection"},{"sourceUnit":{"$ref":"22"},"sourceKey":"comparison","destinationUnit":{"$ref":"38"},"destinationKey":"condition","guid":"c9a9248c-e873-46a9-9d90-3051bdc9a883","$type":"Bolt.ValueConnection"},{"sourceUnit":{"$ref":"47"},"sourceKey":"value","destinationUnit":{"$ref":"45"},"destinationKey":"index","guid":"efb4c4d5-a0ce-47e2-9c29-894577ba0251","$type":"Bolt.ValueConnection"},{"sourceUnit":{"$ref":"45"},"sourceKey":"item","destinationUnit":{"$ref":"64"},"destinationKey":"input","guid":"9bd74258-37d0-449e-a5cf-48e779e07f35","$type":"Bolt.ValueConnection"},{"sourceUnit":{"$ref":"16"},"sourceKey":"list","destinationUnit":{"$ref":"55"},"destinationKey":"collection","guid":"0587ef75-ec91-4ef7-8916-1d17ce48fb05","$type":"Bolt.ValueConnection"},{"sourceUnit":{"$ref":"55"},"sourceKey":"count","destinationUnit":{"$ref":"26"},"destinationKey":"input","guid":"bae850ed-0a39-4386-a70e-f7ab97cf01cb","$type":"Bolt.ValueConnection"},{"sourceUnit":{"$ref":"16"},"sourceKey":"list","destinationUnit":{"$ref":"51"},"destinationKey":"list","guid":"42608654-3399-4171-ba67-30588fa12cd2","$type":"Bolt.ValueConnection"},{"sourceUnit":{"$ref":"47"},"sourceKey":"value","destinationUnit":{"$ref":"43"},"destinationKey":"index","guid":"ca7b30b7-3a2b-4d11-98f4-c86e31e8542f","$type":"Bolt.ValueConnection"},{"sourceUnit":{"$ref":"51"},"sourceKey":"item","destinationUnit":{"$ref":"43"},"destinationKey":"item","guid":"eeaf9a21-801d-414d-b49c-42e4711059d7","$type":"Bolt.ValueConnection"},{"sourceUnit":{"$ref":"66"},"sourceKey":"result","destinationUnit":{"$ref":"49"},"destinationKey":"input","guid":"a1b08870-e351-429c-8297-680510edeb8b","$type":"Bolt.ValueConnection"},{"sourceUnit":{"$ref":"32"},"sourceKey":"value","destinationUnit":{"$ref":"40"},"destinationKey":"number","guid":"e3794dd7-7831-475f-8f84-c67ecc820dad","$type":"Bolt.ValueConnection"},{"sourceUnit":{"$ref":"16"},"sourceKey":"list","destinationUnit":{"$ref":"45"},"destinationKey":"list","guid":"1f854283-256e-4307-a835-0e468cfc3c87","$type":"Bolt.ValueConnection"},{"sourceUnit":{"$ref":"28"},"sourceKey":"sum","destinationUnit":{"$ref":"66"},"destinationKey":"%maxValue","guid":"5f4597d6-ddd3-4735-9046-c06aa55e93ff","$type":"Bolt.ValueConnection"},{"sourceUnit":{"$ref":"36"},"sourceKey":"value","destinationUnit":{"$ref":"20"},"destinationKey":"index","guid":"f4f4c0b8-cd1c-452b-a105-b7e1d52a6b3f","$type":"Bolt.ValueConnection"}],"$version":"A"}}'
    _objectReferences:
    - {fileID: 11400000, guid: 1b2944d5268e3ae41a06d7d42da098f8, type: 2}
