%YAML 1.1
%TAG !u! tag:unity3d.com,2011:
--- !u!114 &11400000
MonoBehaviour:
  m_ObjectHideFlags: 0
  m_CorrespondingSourceObject: {fileID: 0}
  m_PrefabInstance: {fileID: 0}
  m_PrefabAsset: {fileID: 0}
  m_GameObject: {fileID: 0}
  m_Enabled: 1
  m_EditorHideFlags: 0
  m_Script: {fileID: -1893448595, guid: a040fb66244a7f54289914d98ea4ef7d, type: 3}
  m_Name: GetParallelogramArea
  m_EditorClassIdentifier: 
  _data:
    _json: '{"graph":{"variables":{"collection":{"$content":[],"$version":"A"},"$version":"A"},"controlInputDefinitions":[],"controlOutputDefinitions":[],"valueInputDefinitions":[{"hasDefaultValue":true,"defaultValue":{"$content":0.0,"$type":"System.Single"},"_type":"System.Single","key":"base","label":"Base","summary":null,"hideLabel":false},{"hasDefaultValue":true,"defaultValue":{"$content":0.0,"$type":"System.Single"},"_type":"System.Single","key":"height","label":"Height","summary":null,"hideLabel":false}],"valueOutputDefinitions":[{"_type":"System.Single","key":"area","label":"Area","summary":null,"hideLabel":false}],"title":"GetParallelogramArea","summary":null,"pan":{"x":-4.555554,"y":13.96667},"zoom":1.0,"elements":[{"defaultValues":{},"position":{"x":-278.0,"y":-122.0},"guid":"0dceaf20-5ed3-4302-ba2b-0ff368840926","$version":"A","$type":"Bolt.GraphInput","$id":"12"},{"defaultValues":{},"position":{"x":164.0,"y":-121.0},"guid":"152e42ea-7c9e-4e69-a8a4-a19ee83a342e","$version":"A","$type":"Bolt.GraphOutput","$id":"14"},{"defaultValues":{"b":{"$content":1.0,"$type":"System.Single"}},"position":{"x":-57.0,"y":-124.0},"guid":"00a8a971-a9eb-4abe-88a1-5a8d8259b2e3","$version":"A","$type":"Bolt.ScalarMultiply","$id":"16"},{"sourceUnit":{"$ref":"16"},"sourceKey":"product","destinationUnit":{"$ref":"14"},"destinationKey":"area","guid":"cb414f01-7672-48e3-ae5d-d747637d2ee0","$type":"Bolt.ValueConnection"},{"sourceUnit":{"$ref":"12"},"sourceKey":"base","destinationUnit":{"$ref":"16"},"destinationKey":"a","guid":"42a011d3-04bb-4914-be5b-651e3498ec0f","$type":"Bolt.ValueConnection"},{"sourceUnit":{"$ref":"12"},"sourceKey":"height","destinationUnit":{"$ref":"16"},"destinationKey":"b","guid":"a7748222-b034-41dc-926c-10fd341ef41d","$type":"Bolt.ValueConnection"}],"$version":"A"}}'
    _objectReferences: []
