%YAML 1.1
%TAG !u! tag:unity3d.com,2011:
--- !u!114 &11400000
MonoBehaviour:
  m_ObjectHideFlags: 0
  m_CorrespondingSourceObject: {fileID: 0}
  m_PrefabInstance: {fileID: 0}
  m_PrefabAsset: {fileID: 0}
  m_GameObject: {fileID: 0}
  m_Enabled: 1
  m_EditorHideFlags: 0
  m_Script: {fileID: -1893448595, guid: a040fb66244a7f54289914d98ea4ef7d, type: 3}
  m_Name: GetTriangleArea
  m_EditorClassIdentifier: 
  _data:
    _json: '{"graph":{"variables":{"collection":{"$content":[],"$version":"A"},"$version":"A"},"controlInputDefinitions":[],"controlOutputDefinitions":[],"valueInputDefinitions":[{"hasDefaultValue":true,"defaultValue":{"$content":0.0,"$type":"System.Single"},"_type":"System.Single","key":"edge1","label":"Edge
      1","summary":null,"hideLabel":false},{"hasDefaultValue":true,"defaultValue":{"$content":0.0,"$type":"System.Single"},"_type":"System.Single","key":"edge2","label":"Edge
      2","summary":null,"hideLabel":false},{"hasDefaultValue":false,"defaultValue":{"$content":0.0,"$type":"System.Single"},"_type":"System.Single","key":"edge3","label":"Edge
      3","summary":null,"hideLabel":false}],"valueOutputDefinitions":[{"_type":"System.Single","key":"area","label":"Area","summary":null,"hideLabel":false}],"title":"GetTriangleArea","summary":null,"pan":{"x":725.9516,"y":150.1123},"zoom":0.35,"elements":[{"defaultValues":{},"position":{"x":-252.0,"y":-4.0},"guid":"0dceaf20-5ed3-4302-ba2b-0ff368840926","$version":"A","$type":"Bolt.GraphInput","$id":"13"},{"defaultValues":{},"position":{"x":1090.0,"y":31.0},"guid":"152e42ea-7c9e-4e69-a8a4-a19ee83a342e","$version":"A","$type":"Bolt.GraphOutput","$id":"15"},{"defaultValues":{"b":{"$content":1.0,"$type":"System.Single"}},"position":{"x":-150.0,"y":-218.0},"guid":"79b474c4-5958-400f-947a-825baa9ffcfa","$version":"A","$type":"Bolt.ScalarAdd","$id":"17"},{"defaultValues":{"b":{"$content":1.0,"$type":"System.Single"}},"position":{"x":3.0,"y":-217.0},"guid":"632289a3-8281-41ab-95ab-5bdfd7e98abd","$version":"A","$type":"Bolt.ScalarAdd","$id":"19"},{"defaultValues":{"dividend":{"$content":1.0,"$type":"System.Single"},"divisor":{"$content":2.0,"$type":"System.Single"}},"position":{"x":159.0,"y":-219.0},"guid":"13544dee-d37f-4b4b-a4e4-8170beef8261","$version":"A","$type":"Bolt.ScalarDivide","$id":"21"},{"chainable":false,"member":{"name":"Sqrt","parameterTypes":["System.Single"],"targetType":"UnityEngine.Mathf","targetTypeName":"UnityEngine.Mathf","$version":"A"},"defaultValues":{"%f":{"$content":0.0,"$type":"System.Single"}},"position":{"x":931.0,"y":-103.0},"guid":"44ecfe9e-7242-4e12-89f7-88cd5aeb298f","$version":"A","$type":"Bolt.InvokeMember","$id":"23"},{"defaultValues":{"b":{"$content":1.0,"$type":"System.Single"}},"position":{"x":535.0,"y":-105.0},"guid":"1437e5be-1adf-4c4b-b1ac-c397c0ba8040","$version":"A","$type":"Bolt.ScalarMultiply","$id":"26"},{"defaultValues":{"minuend":{"$content":1.0,"$type":"System.Single"},"subtrahend":{"$content":1.0,"$type":"System.Single"}},"position":{"x":354.0,"y":-75.0},"guid":"4ef67f42-9ee8-49b8-9c52-91ea34ded197","$version":"A","$type":"Bolt.ScalarSubtract","$id":"28"},{"defaultValues":{"minuend":{"$content":1.0,"$type":"System.Single"},"subtrahend":{"$content":1.0,"$type":"System.Single"}},"position":{"x":356.0,"y":39.0},"guid":"dab83ea2-c53a-41cc-b31c-6793c6ed4e7a","$version":"A","$type":"Bolt.ScalarSubtract","$id":"30"},{"defaultValues":{"minuend":{"$content":1.0,"$type":"System.Single"},"subtrahend":{"$content":1.0,"$type":"System.Single"}},"position":{"x":356.0,"y":150.0},"guid":"752d81b6-7bb2-4d8b-9436-1cd42426adc0","$version":"A","$type":"Bolt.ScalarSubtract","$id":"32"},{"defaultValues":{"b":{"$content":1.0,"$type":"System.Single"}},"position":{"x":669.0,"y":29.0},"guid":"14642b7d-4f5d-4356-bb5e-5d2356d67a1d","$version":"A","$type":"Bolt.ScalarMultiply","$id":"34"},{"defaultValues":{"b":{"$content":1.0,"$type":"System.Single"}},"position":{"x":796.0,"y":141.0},"guid":"6cffba3a-9b1a-4821-b133-54f45e56fe2e","$version":"A","$type":"Bolt.ScalarMultiply","$id":"36"},{"sourceUnit":{"$ref":"13"},"sourceKey":"edge1","destinationUnit":{"$ref":"17"},"destinationKey":"a","guid":"550971e5-54b0-4ff7-a574-3feed39e135a","$type":"Bolt.ValueConnection"},{"sourceUnit":{"$ref":"13"},"sourceKey":"edge2","destinationUnit":{"$ref":"17"},"destinationKey":"b","guid":"ce37052a-a645-40dc-88cf-294ea06bbac5","$type":"Bolt.ValueConnection"},{"sourceUnit":{"$ref":"17"},"sourceKey":"sum","destinationUnit":{"$ref":"19"},"destinationKey":"a","guid":"8d2fe5e2-5cbc-4844-94b8-7c11c2f6f977","$type":"Bolt.ValueConnection"},{"sourceUnit":{"$ref":"13"},"sourceKey":"edge3","destinationUnit":{"$ref":"19"},"destinationKey":"b","guid":"6f0221ed-15ce-47a1-bc53-80939e155455","$type":"Bolt.ValueConnection"},{"sourceUnit":{"$ref":"19"},"sourceKey":"sum","destinationUnit":{"$ref":"21"},"destinationKey":"dividend","guid":"7504fbcf-3a92-4b9d-bf50-deeb0c31f2f2","$type":"Bolt.ValueConnection"},{"sourceUnit":{"$ref":"21"},"sourceKey":"quotient","destinationUnit":{"$ref":"26"},"destinationKey":"a","guid":"66e2baf1-fa46-42fb-887c-5c2d7fe62de7","$type":"Bolt.ValueConnection"},{"sourceUnit":{"$ref":"23"},"sourceKey":"result","destinationUnit":{"$ref":"15"},"destinationKey":"area","guid":"0f69112d-c0da-4c2a-879f-def717fd274f","$type":"Bolt.ValueConnection"},{"sourceUnit":{"$ref":"21"},"sourceKey":"quotient","destinationUnit":{"$ref":"28"},"destinationKey":"minuend","guid":"27789566-225a-4391-a0e8-e7f26644b7e3","$type":"Bolt.ValueConnection"},{"sourceUnit":{"$ref":"13"},"sourceKey":"edge1","destinationUnit":{"$ref":"28"},"destinationKey":"subtrahend","guid":"2f6ad6d1-5b31-48a2-9969-a6f895f64d4a","$type":"Bolt.ValueConnection"},{"sourceUnit":{"$ref":"21"},"sourceKey":"quotient","destinationUnit":{"$ref":"30"},"destinationKey":"minuend","guid":"aec1a12c-5898-4a18-808a-b35c11560583","$type":"Bolt.ValueConnection"},{"sourceUnit":{"$ref":"13"},"sourceKey":"edge2","destinationUnit":{"$ref":"30"},"destinationKey":"subtrahend","guid":"8eda62f3-7525-4f7c-8c6e-7a9a0a563031","$type":"Bolt.ValueConnection"},{"sourceUnit":{"$ref":"21"},"sourceKey":"quotient","destinationUnit":{"$ref":"32"},"destinationKey":"minuend","guid":"411e2793-10c4-49cc-b749-c374a15a7ab5","$type":"Bolt.ValueConnection"},{"sourceUnit":{"$ref":"13"},"sourceKey":"edge3","destinationUnit":{"$ref":"32"},"destinationKey":"subtrahend","guid":"1022a26e-e110-44db-abaf-e1c8edcaf3e5","$type":"Bolt.ValueConnection"},{"sourceUnit":{"$ref":"28"},"sourceKey":"difference","destinationUnit":{"$ref":"26"},"destinationKey":"b","guid":"8b5a851c-c21a-414c-abdd-4cc7fdb6d9f1","$type":"Bolt.ValueConnection"},{"sourceUnit":{"$ref":"26"},"sourceKey":"product","destinationUnit":{"$ref":"34"},"destinationKey":"a","guid":"990f2507-2fcf-4572-a197-4c3638fe5394","$type":"Bolt.ValueConnection"},{"sourceUnit":{"$ref":"30"},"sourceKey":"difference","destinationUnit":{"$ref":"34"},"destinationKey":"b","guid":"16066d0f-8185-4fa9-8607-a6cad9abd90a","$type":"Bolt.ValueConnection"},{"sourceUnit":{"$ref":"34"},"sourceKey":"product","destinationUnit":{"$ref":"36"},"destinationKey":"a","guid":"e31a461f-a364-4986-9a02-d6f7e572f62d","$type":"Bolt.ValueConnection"},{"sourceUnit":{"$ref":"32"},"sourceKey":"difference","destinationUnit":{"$ref":"36"},"destinationKey":"b","guid":"983219dc-4e00-4e7d-aa97-1990a8b2f59a","$type":"Bolt.ValueConnection"},{"sourceUnit":{"$ref":"36"},"sourceKey":"product","destinationUnit":{"$ref":"23"},"destinationKey":"%f","guid":"1b48d38c-b55a-4a93-9b28-30450f72498e","$type":"Bolt.ValueConnection"}],"$version":"A"}}'
    _objectReferences: []
