%YAML 1.1
%TAG !u! tag:unity3d.com,2011:
--- !u!1 &4443341258144299916
GameObject:
  m_ObjectHideFlags: 0
  m_CorrespondingSourceObject: {fileID: 0}
  m_PrefabInstance: {fileID: 0}
  m_PrefabAsset: {fileID: 0}
  serializedVersion: 6
  m_Component:
  - component: {fileID: 4398858360961579029}
  m_Layer: 0
  m_Name: TallMoovable
  m_TagString: Untagged
  m_Icon: {fileID: 0}
  m_NavMeshLayer: 0
  m_StaticEditorFlags: 0
  m_IsActive: 1
--- !u!4 &4398858360961579029
Transform:
  m_ObjectHideFlags: 0
  m_CorrespondingSourceObject: {fileID: 0}
  m_PrefabInstance: {fileID: 0}
  m_PrefabAsset: {fileID: 0}
  m_GameObject: {fileID: 4443341258144299916}
  m_LocalRotation: {x: 0, y: 0, z: 0, w: 1}
  m_LocalPosition: {x: 1, y: 0, z: 4}
  m_LocalScale: {x: 1, y: 1, z: 1}
  m_Children:
  - {fileID: 3064017267722607697}
  - {fileID: 6225088861354615099}
  m_Father: {fileID: 0}
  m_RootOrder: 0
  m_LocalEulerAnglesHint: {x: 0, y: 0, z: 0}
--- !u!1001 &1841425228416243491
PrefabInstance:
  m_ObjectHideFlags: 0
  serializedVersion: 2
  m_Modification:
    m_TransformParent: {fileID: 4398858360961579029}
    m_Modifications:
    - target: {fileID: 3678206168439032690, guid: 78aafc02cddfd5643af92bd28ee45dd2, type: 3}
      propertyPath: m_RootOrder
      value: 0
      objectReference: {fileID: 0}
    - target: {fileID: 3678206168439032690, guid: 78aafc02cddfd5643af92bd28ee45dd2, type: 3}
      propertyPath: m_LocalPosition.x
      value: 2.5
      objectReference: {fileID: 0}
    - target: {fileID: 3678206168439032690, guid: 78aafc02cddfd5643af92bd28ee45dd2, type: 3}
      propertyPath: m_LocalPosition.y
      value: 0.5
      objectReference: {fileID: 0}
    - target: {fileID: 3678206168439032690, guid: 78aafc02cddfd5643af92bd28ee45dd2, type: 3}
      propertyPath: m_LocalPosition.z
      value: -4.5
      objectReference: {fileID: 0}
    - target: {fileID: 3678206168439032690, guid: 78aafc02cddfd5643af92bd28ee45dd2, type: 3}
      propertyPath: m_LocalRotation.w
      value: 1
      objectReference: {fileID: 0}
    - target: {fileID: 3678206168439032690, guid: 78aafc02cddfd5643af92bd28ee45dd2, type: 3}
      propertyPath: m_LocalRotation.x
      value: -0
      objectReference: {fileID: 0}
    - target: {fileID: 3678206168439032690, guid: 78aafc02cddfd5643af92bd28ee45dd2, type: 3}
      propertyPath: m_LocalRotation.y
      value: -0
      objectReference: {fileID: 0}
    - target: {fileID: 3678206168439032690, guid: 78aafc02cddfd5643af92bd28ee45dd2, type: 3}
      propertyPath: m_LocalRotation.z
      value: -0
      objectReference: {fileID: 0}
    - target: {fileID: 3678206168439032690, guid: 78aafc02cddfd5643af92bd28ee45dd2, type: 3}
      propertyPath: m_LocalEulerAnglesHint.x
      value: 0
      objectReference: {fileID: 0}
    - target: {fileID: 3678206168439032690, guid: 78aafc02cddfd5643af92bd28ee45dd2, type: 3}
      propertyPath: m_LocalEulerAnglesHint.y
      value: 0
      objectReference: {fileID: 0}
    - target: {fileID: 3678206168439032690, guid: 78aafc02cddfd5643af92bd28ee45dd2, type: 3}
      propertyPath: m_LocalEulerAnglesHint.z
      value: 0
      objectReference: {fileID: 0}
    - target: {fileID: 4053325053595865544, guid: 78aafc02cddfd5643af92bd28ee45dd2, type: 3}
      propertyPath: m_Name
      value: FancyTile
      objectReference: {fileID: 0}
    m_RemovedComponents: []
  m_SourcePrefab: {fileID: 100100000, guid: 78aafc02cddfd5643af92bd28ee45dd2, type: 3}
--- !u!4 &3064017267722607697 stripped
Transform:
  m_CorrespondingSourceObject: {fileID: 3678206168439032690, guid: 78aafc02cddfd5643af92bd28ee45dd2, type: 3}
  m_PrefabInstance: {fileID: 1841425228416243491}
  m_PrefabAsset: {fileID: 0}
--- !u!1001 &7307205104661031497
PrefabInstance:
  m_ObjectHideFlags: 0
  serializedVersion: 2
  m_Modification:
    m_TransformParent: {fileID: 4398858360961579029}
    m_Modifications:
    - target: {fileID: 3678206168439032690, guid: 78aafc02cddfd5643af92bd28ee45dd2, type: 3}
      propertyPath: m_RootOrder
      value: 1
      objectReference: {fileID: 0}
    - target: {fileID: 3678206168439032690, guid: 78aafc02cddfd5643af92bd28ee45dd2, type: 3}
      propertyPath: m_LocalPosition.x
      value: 2.5
      objectReference: {fileID: 0}
    - target: {fileID: 3678206168439032690, guid: 78aafc02cddfd5643af92bd28ee45dd2, type: 3}
      propertyPath: m_LocalPosition.y
      value: 1.5
      objectReference: {fileID: 0}
    - target: {fileID: 3678206168439032690, guid: 78aafc02cddfd5643af92bd28ee45dd2, type: 3}
      propertyPath: m_LocalPosition.z
      value: -4.5
      objectReference: {fileID: 0}
    - target: {fileID: 3678206168439032690, guid: 78aafc02cddfd5643af92bd28ee45dd2, type: 3}
      propertyPath: m_LocalRotation.w
      value: 1
      objectReference: {fileID: 0}
    - target: {fileID: 3678206168439032690, guid: 78aafc02cddfd5643af92bd28ee45dd2, type: 3}
      propertyPath: m_LocalRotation.x
      value: -0
      objectReference: {fileID: 0}
    - target: {fileID: 3678206168439032690, guid: 78aafc02cddfd5643af92bd28ee45dd2, type: 3}
      propertyPath: m_LocalRotation.y
      value: -0
      objectReference: {fileID: 0}
    - target: {fileID: 3678206168439032690, guid: 78aafc02cddfd5643af92bd28ee45dd2, type: 3}
      propertyPath: m_LocalRotation.z
      value: -0
      objectReference: {fileID: 0}
    - target: {fileID: 3678206168439032690, guid: 78aafc02cddfd5643af92bd28ee45dd2, type: 3}
      propertyPath: m_LocalEulerAnglesHint.x
      value: 0
      objectReference: {fileID: 0}
    - target: {fileID: 3678206168439032690, guid: 78aafc02cddfd5643af92bd28ee45dd2, type: 3}
      propertyPath: m_LocalEulerAnglesHint.y
      value: 0
      objectReference: {fileID: 0}
    - target: {fileID: 3678206168439032690, guid: 78aafc02cddfd5643af92bd28ee45dd2, type: 3}
      propertyPath: m_LocalEulerAnglesHint.z
      value: 0
      objectReference: {fileID: 0}
    - target: {fileID: 4053325053595865544, guid: 78aafc02cddfd5643af92bd28ee45dd2, type: 3}
      propertyPath: m_Name
      value: FancyTile (1)
      objectReference: {fileID: 0}
    m_RemovedComponents: []
  m_SourcePrefab: {fileID: 100100000, guid: 78aafc02cddfd5643af92bd28ee45dd2, type: 3}
--- !u!4 &6225088861354615099 stripped
Transform:
  m_CorrespondingSourceObject: {fileID: 3678206168439032690, guid: 78aafc02cddfd5643af92bd28ee45dd2, type: 3}
  m_PrefabInstance: {fileID: 7307205104661031497}
  m_PrefabAsset: {fileID: 0}
