%YAML 1.1
%TAG !u! tag:unity3d.com,2011:
--- !u!114 &11400000
MonoBehaviour:
  m_ObjectHideFlags: 0
  m_CorrespondingSourceObject: {fileID: 0}
  m_PrefabInstance: {fileID: 0}
  m_PrefabAsset: {fileID: 0}
  m_GameObject: {fileID: 0}
  m_Enabled: 1
  m_EditorHideFlags: 0
  m_Script: {fileID: -1893448595, guid: a040fb66244a7f54289914d98ea4ef7d, type: 3}
  m_Name: MoveDirection
  m_EditorClassIdentifier: 
  _data:
    _json: '{"graph":{"variables":{"collection":{"$content":[],"$version":"A"},"$version":"A"},"controlInputDefinitions":[{"key":"enter","label":null,"summary":null,"hideLabel":false}],"controlOutputDefinitions":[{"key":"exit","label":null,"summary":null,"hideLabel":false}],"valueInputDefinitions":[{"hasDefaultValue":true,"defaultValue":null,"_type":"UnityEngine.GameObject","key":"object","label":null,"summary":null,"hideLabel":false},{"hasDefaultValue":true,"defaultValue":{"$content":1.0,"$type":"System.Single"},"_type":"System.Single","key":"speed","label":"","summary":null,"hideLabel":false},{"hasDefaultValue":false,"defaultValue":{"x":0.0,"y":0.0,"z":0.0,"$type":"UnityEngine.Vector3"},"_type":"UnityEngine.Vector3","key":"Direction","label":null,"summary":null,"hideLabel":false}],"valueOutputDefinitions":[],"title":"Move
      Direction","summary":null,"pan":{"x":-320.2005,"y":-95.14823},"zoom":0.8,"elements":[{"defaultValues":{},"position":{"x":-723.0,"y":-238.0},"guid":"6a1160e5-f1b2-4b0e-a480-3f5b9fb1d0e0","$version":"A","$type":"Bolt.GraphInput","$id":"14"},{"chainable":false,"member":{"name":"Translate","parameterTypes":["UnityEngine.Vector3"],"targetType":"UnityEngine.Transform","targetTypeName":"UnityEngine.Transform","$version":"A"},"defaultValues":{"target":null,"%translation":{"x":0.0,"y":0.0,"z":0.0,"$type":"UnityEngine.Vector3"}},"position":{"x":-117.0,"y":-240.0},"guid":"1f984444-59c4-4074-a3ef-7de25cae7661","$version":"A","$type":"Bolt.InvokeMember","$id":"16"},{"defaultValues":{},"position":{"x":-315.0,"y":75.0},"guid":"5458f9d0-42bc-4d3a-b7d0-4bce36760401","$version":"A","$type":"Bolt.GenericMultiply","$id":"19"},{"member":{"name":"deltaTime","parameterTypes":null,"targetType":"UnityEngine.Time","targetTypeName":"UnityEngine.Time","$version":"A"},"defaultValues":{},"position":{"x":-695.0,"y":45.0},"guid":"334de2e5-297e-4fcb-9ce5-51e054251626","$version":"A","$type":"Bolt.GetMember","$id":"21"},{"member":{"name":"transform","parameterTypes":null,"targetType":"UnityEngine.GameObject","targetTypeName":"UnityEngine.GameObject","$version":"A"},"defaultValues":{"target":null},"position":{"x":-356.0,"y":-165.0},"guid":"57dbfe56-d279-4c70-bc05-b65188c1ec4b","$version":"A","$type":"Bolt.GetMember","$id":"24"},{"defaultValues":{"b":{"$content":1.0,"$type":"System.Single"}},"position":{"x":-477.0,"y":-96.0},"guid":"1b05a18e-15cb-4eac-929e-4a57d6244e77","$version":"A","$type":"Bolt.ScalarMultiply","$id":"27"},{"sourceUnit":{"$ref":"14"},"sourceKey":"enter","destinationUnit":{"$ref":"16"},"destinationKey":"enter","guid":"e5a600f8-4291-4de9-b59c-7571159ad360","$type":"Bolt.ControlConnection"},{"sourceUnit":{"$ref":"19"},"sourceKey":"product","destinationUnit":{"$ref":"16"},"destinationKey":"%translation","guid":"73d9d6d9-24c3-4385-9387-4789621f03fc","$type":"Bolt.ValueConnection"},{"sourceUnit":{"$ref":"14"},"sourceKey":"object","destinationUnit":{"$ref":"24"},"destinationKey":"target","guid":"7cdd8898-760a-41ae-9a02-1ca8d0f24bb5","$type":"Bolt.ValueConnection"},{"sourceUnit":{"$ref":"24"},"sourceKey":"value","destinationUnit":{"$ref":"16"},"destinationKey":"target","guid":"6ae2be0a-6b9b-4512-afef-846c7084dcd6","$type":"Bolt.ValueConnection"},{"sourceUnit":{"$ref":"14"},"sourceKey":"speed","destinationUnit":{"$ref":"27"},"destinationKey":"a","guid":"b78003f6-fd1e-46a3-91ba-a6857fb747b3","$type":"Bolt.ValueConnection"},{"sourceUnit":{"$ref":"21"},"sourceKey":"value","destinationUnit":{"$ref":"27"},"destinationKey":"b","guid":"564bb064-498e-438a-8df2-d5257673216f","$type":"Bolt.ValueConnection"},{"sourceUnit":{"$ref":"27"},"sourceKey":"product","destinationUnit":{"$ref":"19"},"destinationKey":"a","guid":"c5e92ea9-afa5-4035-b11b-5df422a49549","$type":"Bolt.ValueConnection"},{"sourceUnit":{"$ref":"14"},"sourceKey":"Direction","destinationUnit":{"$ref":"19"},"destinationKey":"b","guid":"4f59f409-1510-44d7-b633-02779bbbbec0","$type":"Bolt.ValueConnection"}],"$version":"A"}}'
    _objectReferences: []
