%YAML 1.1
%TAG !u! tag:unity3d.com,2011:
--- !u!114 &11400000
MonoBehaviour:
  m_ObjectHideFlags: 0
  m_CorrespondingSourceObject: {fileID: 0}
  m_PrefabInstance: {fileID: 0}
  m_PrefabAsset: {fileID: 0}
  m_GameObject: {fileID: 0}
  m_Enabled: 1
  m_EditorHideFlags: 0
  m_Script: {fileID: -1893448595, guid: a040fb66244a7f54289914d98ea4ef7d, type: 3}
  m_Name: SetActiveAllChildren
  m_EditorClassIdentifier: 
  _data:
    _json: '{"graph":{"variables":{"collection":{"$content":[],"$version":"A"},"$version":"A"},"controlInputDefinitions":[{"key":"enter","label":"Enter","summary":null,"hideLabel":false}],"controlOutputDefinitions":[{"key":"exit","label":"Exit","summary":"Exit
      the graph","hideLabel":false}],"valueInputDefinitions":[{"hasDefaultValue":false,"defaultValue":{"$content":false,"$type":"System.Boolean"},"_type":"System.Boolean","key":"active","label":null,"summary":null,"hideLabel":true}],"valueOutputDefinitions":[],"title":"Destroy
      All Children","summary":"Destroy all children of a gameobject","pan":{"x":-225.7503,"y":52.28192},"zoom":0.9,"elements":[{"defaultValues":{},"position":{"x":-600.0,"y":-216.0},"guid":"9b3d81b4-0378-4d01-b04c-ddaddf61e7a5","$version":"A","$type":"Bolt.GraphInput","$id":"12"},{"defaultValues":{},"position":{"x":7.0,"y":-208.0},"guid":"48b7261f-da97-4d37-8e49-31b71187cd11","$version":"A","$type":"Bolt.GraphOutput","$id":"14"},{"chainable":false,"member":{"name":"GetChild","parameterTypes":["System.Int32"],"targetType":"UnityEngine.Transform","targetTypeName":"UnityEngine.Transform","$version":"A"},"defaultValues":{"target":null,"%index":{"$content":0,"$type":"System.Int32"}},"position":{"x":-233.0,"y":176.0},"guid":"13fe62dd-044e-4b77-b3a3-63266dfa0271","$version":"A","$type":"Bolt.InvokeMember","$id":"16"},{"defaultValues":{"firstIndex":{"$content":0,"$type":"System.Int32"},"lastIndex":{"$content":10,"$type":"System.Int32"},"step":{"$content":1,"$type":"System.Int32"}},"position":{"x":-387.0,"y":-123.0},"guid":"dd6e4f62-fb73-444b-b750-aba856e9d93f","$version":"A","$type":"Bolt.For","$id":"19"},{"member":{"name":"gameObject","parameterTypes":null,"targetType":"UnityEngine.GameObject","targetTypeName":"UnityEngine.GameObject","$version":"A"},"defaultValues":{"target":null},"position":{"x":-60.0,"y":64.0},"guid":"b44ea480-9ff5-4bf3-8c50-88c39a13a899","$version":"A","$type":"Bolt.GetMember","$id":"21"},{"member":{"name":"childCount","parameterTypes":null,"targetType":"UnityEngine.Transform","targetTypeName":"UnityEngine.Transform","$version":"A"},"defaultValues":{"target":null},"position":{"x":-632.0,"y":114.0},"guid":"c7143c13-d762-493e-be40-4f62fb75dd74","$version":"A","$type":"Bolt.GetMember","$id":"24"},{"chainable":false,"member":{"name":"SetActive","parameterTypes":["System.Boolean"],"targetType":"UnityEngine.GameObject","targetTypeName":"UnityEngine.GameObject","$version":"A"},"defaultValues":{"target":null,"%value":{"$content":false,"$type":"System.Boolean"}},"position":{"x":125.0,"y":-102.0},"guid":"fbb24201-b0e4-4d07-8a4c-0884fadaa0d4","$version":"A","$type":"Bolt.InvokeMember","$id":"27"},{"sourceUnit":{"$ref":"19"},"sourceKey":"exit","destinationUnit":{"$ref":"14"},"destinationKey":"exit","guid":"57a900f7-cf93-4a84-8019-25323a746302","$type":"Bolt.ControlConnection"},{"sourceUnit":{"$ref":"12"},"sourceKey":"enter","destinationUnit":{"$ref":"19"},"destinationKey":"enter","guid":"83108029-69ad-4c0a-aa6e-fd193dfdb36f","$type":"Bolt.ControlConnection"},{"sourceUnit":{"$ref":"19"},"sourceKey":"body","destinationUnit":{"$ref":"27"},"destinationKey":"enter","guid":"f90314fe-3fe2-40c0-95d2-4e244a0490ca","$type":"Bolt.ControlConnection"},{"sourceUnit":{"$ref":"16"},"sourceKey":"result","destinationUnit":{"$ref":"21"},"destinationKey":"target","guid":"7fabea64-c752-4d5a-9b32-03e5127e25a9","$type":"Bolt.ValueConnection"},{"sourceUnit":{"$ref":"24"},"sourceKey":"value","destinationUnit":{"$ref":"19"},"destinationKey":"lastIndex","guid":"cea813b9-66f5-4e59-9e72-64f426230d96","$type":"Bolt.ValueConnection"},{"sourceUnit":{"$ref":"19"},"sourceKey":"currentIndex","destinationUnit":{"$ref":"16"},"destinationKey":"%index","guid":"7f76453b-29c9-4918-a6bf-ed050f88b95a","$type":"Bolt.ValueConnection"},{"sourceUnit":{"$ref":"21"},"sourceKey":"value","destinationUnit":{"$ref":"27"},"destinationKey":"target","guid":"d38c54c9-5f0a-481a-b51b-cfb971f48aca","$type":"Bolt.ValueConnection"},{"sourceUnit":{"$ref":"12"},"sourceKey":"active","destinationUnit":{"$ref":"27"},"destinationKey":"%value","guid":"5a806372-f27b-4638-8937-cb5f8e35e4ea","$type":"Bolt.ValueConnection"}],"$version":"A"}}'
    _objectReferences: []
