%YAML 1.1
%TAG !u! tag:unity3d.com,2011:
--- !u!114 &11400000
MonoBehaviour:
  m_ObjectHideFlags: 0
  m_CorrespondingSourceObject: {fileID: 0}
  m_PrefabInstance: {fileID: 0}
  m_PrefabAsset: {fileID: 0}
  m_GameObject: {fileID: 0}
  m_Enabled: 1
  m_EditorHideFlags: 0
  m_Script: {fileID: -1893448595, guid: a040fb66244a7f54289914d98ea4ef7d, type: 3}
  m_Name: Connector
  m_EditorClassIdentifier: 
  _data:
    _json: '{"graph":{"variables":{"collection":{"$content":[],"$version":"A"},"$version":"A"},"controlInputDefinitions":[{"key":"enter","label":"Enter","summary":null,"hideLabel":true}],"controlOutputDefinitions":[{"key":"exit","label":"Exit","summary":null,"hideLabel":true}],"valueInputDefinitions":[],"valueOutputDefinitions":[],"title":null,"summary":null,"pan":{"x":0.0,"y":0.0},"zoom":1.0,"elements":[{"defaultValues":{},"position":{"x":-224.0,"y":-109.0},"guid":"91edd218-7173-4e2f-9293-13db5a718376","$version":"A","$type":"Bolt.GraphInput","$id":"11"},{"defaultValues":{},"position":{"x":7.0,"y":-109.0},"guid":"f50fd8af-0d26-4f3d-83a8-b91b71883ec1","$version":"A","$type":"Bolt.GraphOutput","$id":"13"},{"sourceUnit":{"$ref":"11"},"sourceKey":"enter","destinationUnit":{"$ref":"13"},"destinationKey":"exit","guid":"80efdcb0-085b-4694-81e5-3f8289c3b252","$type":"Bolt.ControlConnection"}],"$version":"A"}}'
    _objectReferences: []
