%YAML 1.1
%TAG !u! tag:unity3d.com,2011:
--- !u!114 &11400000
MonoBehaviour:
  m_ObjectHideFlags: 0
  m_CorrespondingSourceObject: {fileID: 0}
  m_PrefabInstance: {fileID: 0}
  m_PrefabAsset: {fileID: 0}
  m_GameObject: {fileID: 0}
  m_Enabled: 1
  m_EditorHideFlags: 0
  m_Script: {fileID: -1893448595, guid: a040fb66244a7f54289914d98ea4ef7d, type: 3}
  m_Name: Todo
  m_EditorClassIdentifier: 
  _data:
    _json: '{"graph":{"variables":{"collection":{"$content":[],"$version":"A"},"$version":"A"},"controlInputDefinitions":[{"key":"enter","label":"Enter","summary":null,"hideLabel":false}],"controlOutputDefinitions":[{"key":"exit","label":"Exit","summary":null,"hideLabel":false}],"valueInputDefinitions":[{"hasDefaultValue":true,"defaultValue":null,"_type":"System.String","key":"content","label":null,"summary":null,"hideLabel":false},{"hasDefaultValue":true,"defaultValue":{"$content":false,"$type":"System.Boolean"},"_type":"System.Boolean","key":"stoponhit","label":"StopOnHit","summary":null,"hideLabel":false}],"valueOutputDefinitions":[],"title":"Todo","summary":null,"pan":{"x":-164.2098,"y":-20.53886},"zoom":1.0,"elements":[{"defaultValues":{},"position":{"x":-608.0,"y":-177.0},"guid":"f3660878-f030-45c6-be77-5676f17b183f","$version":"A","$type":"Bolt.GraphInput","$id":"13"},{"defaultValues":{},"position":{"x":215.0,"y":-117.0},"guid":"d7ebc36f-8d57-4e46-99cb-dc3bf082a430","$version":"A","$type":"Bolt.GraphOutput","$id":"15"},{"chainable":false,"member":{"name":"LogWarning","parameterTypes":["System.Object","UnityEngine.Object"],"targetType":"UnityEngine.Debug","targetTypeName":"UnityEngine.Debug","$version":"A"},"defaultValues":{"%context":null},"position":{"x":2.0,"y":-118.0},"guid":"9f828b5a-48dd-4f82-bd36-70c57a14efbf","$version":"A","$type":"Bolt.InvokeMember","$id":"17"},{"chainable":false,"member":{"name":"Concat","parameterTypes":["System.Object","System.Object"],"targetType":"System.String","targetTypeName":"System.String","$version":"A"},"defaultValues":{},"position":{"x":-355.0,"y":-119.0},"guid":"f91a2426-f41b-4346-910b-570bb8bd9e1e","$version":"A","$type":"Bolt.InvokeMember","$id":"20"},{"type":"System.String","value":{"$content":"TODO:
      ","$type":"System.String"},"defaultValues":{},"position":{"x":-484.0,"y":121.0},"guid":"2f4c99cb-166a-492d-a234-a7614a636e54","$version":"A","$type":"Bolt.Literal","$id":"23"},{"defaultValues":{},"position":{"x":-121.0,"y":43.0},"guid":"aa76b82b-a3cf-4abe-aec0-e44ace907820","$version":"A","$type":"Bolt.Self","$id":"25"},{"defaultValues":{},"position":{"x":-286.0,"y":-243.0},"guid":"f40d0b01-fe1f-435f-a033-84d2c6009a31","$version":"A","$type":"Bolt.Branch","$id":"27"},{"custom":false,"defaultValues":{"message":{"$content":"","$type":"System.String"}},"position":{"x":-119.0,"y":-242.0},"guid":"20b3a781-ffd5-4002-9502-e5b3a08a4597","$version":"A","$type":"Bolt.Throw","$id":"29"},{"sourceUnit":{"$ref":"27"},"sourceKey":"ifFalse","destinationUnit":{"$ref":"17"},"destinationKey":"enter","guid":"94bc8ec8-32d5-45a4-b3b8-8e6fe7a499f3","$type":"Bolt.ControlConnection"},{"sourceUnit":{"$ref":"17"},"sourceKey":"exit","destinationUnit":{"$ref":"15"},"destinationKey":"exit","guid":"cdc0f634-a801-4d36-8553-d31556c43b20","$type":"Bolt.ControlConnection"},{"sourceUnit":{"$ref":"13"},"sourceKey":"enter","destinationUnit":{"$ref":"27"},"destinationKey":"enter","guid":"7ed08af5-ae41-43f6-80c3-4845f40051ad","$type":"Bolt.ControlConnection"},{"sourceUnit":{"$ref":"27"},"sourceKey":"ifTrue","destinationUnit":{"$ref":"29"},"destinationKey":"enter","guid":"ff9f3c0b-cc6a-4c2f-8d24-6079a0dab8bf","$type":"Bolt.ControlConnection"},{"sourceUnit":{"$ref":"13"},"sourceKey":"content","destinationUnit":{"$ref":"20"},"destinationKey":"%arg1","guid":"1443a99a-40f2-45a0-a767-325d99f93bdb","$type":"Bolt.ValueConnection"},{"sourceUnit":{"$ref":"25"},"sourceKey":"self","destinationUnit":{"$ref":"17"},"destinationKey":"%context","guid":"6e0f2d1c-7acb-460e-bd14-c88907f5f45b","$type":"Bolt.ValueConnection"},{"sourceUnit":{"$ref":"20"},"sourceKey":"result","destinationUnit":{"$ref":"17"},"destinationKey":"%message","guid":"379e9540-3de0-43a7-8669-407e496a01e4","$type":"Bolt.ValueConnection"},{"sourceUnit":{"$ref":"23"},"sourceKey":"output","destinationUnit":{"$ref":"20"},"destinationKey":"%arg0","guid":"b3f69d64-62a4-4e30-b876-b83aab7a4564","$type":"Bolt.ValueConnection"},{"sourceUnit":{"$ref":"13"},"sourceKey":"stoponhit","destinationUnit":{"$ref":"27"},"destinationKey":"condition","guid":"81194c09-a60a-45d1-aa52-8cd5b9122aac","$type":"Bolt.ValueConnection"},{"sourceUnit":{"$ref":"23"},"sourceKey":"output","destinationUnit":{"$ref":"29"},"destinationKey":"message","guid":"e5d6b15f-3c39-4442-9ed9-f4026cf472ef","$type":"Bolt.ValueConnection"}],"$version":"A"}}'
    _objectReferences: []
